<?xml version="1.0" encoding="utf-8"?>
<!-- Generator: Adobe Illustrator 16.0.0, SVG Export Plug-In . SVG Version: 6.00 Build 0)  -->
<!DOCTYPE svg PUBLIC "-//W3C//DTD SVG 1.1//EN" "http://www.w3.org/Graphics/SVG/1.1/DTD/svg11.dtd">
<svg version="1.1" id="圖層_1" xmlns="http://www.w3.org/2000/svg" xmlns:xlink="http://www.w3.org/1999/xlink" x="0px" y="0px"
	 width="766.768px" height="60.65px" viewBox="0 0 766.768 60.65" enable-background="new 0 0 766.768 60.65" xml:space="preserve">
<g>
	<g>
		<g>
			<g>
				<g>
					<path fill="#FFFFFF" d="M203.459,34.077c0-0.207-0.171-0.379-0.378-0.379h-5.54c-0.207,0-0.378,0.171-0.378,0.379v13.878
						c0,0.207,0.13,0.376,0.284,0.376c0.156,0,0.287,0.006,0.287,0.008c0.001,0.001,0.171,0.006,0.379,0.006h17.77
						c0.207,0,0.435-0.159,0.51-0.355l0.638-1.675c0.076-0.197-0.036-0.352-0.242-0.352h-12.952c-0.207,0-0.376-0.171-0.376-0.38
						L203.459,34.077L203.459,34.077z"/>
				</g>
			</g>
			<g>
				<g>
					<path fill="#FFFFFF" d="M221.222,34.077c-0.035-0.199-0.232-0.37-0.436-0.37l-5-0.008c-0.209,0-0.351,0.168-0.319,0.37
						l1.905,11.982c0.034,0.204,0.23,0.375,0.436,0.375l5,0.009c0.208,0,0.35-0.167,0.317-0.377L221.222,34.077z"/>
				</g>
			</g>
			<g>
				<g>
					<path fill="#FFFFFF" d="M188.99,46.023c-0.03,0.209,0.119,0.375,0.326,0.375l4.997-0.008c0.208,0,0.4-0.171,0.428-0.375
						l1.622-11.941c0.027-0.207-0.118-0.376-0.326-0.376l-4.999,0.006c-0.207,0-0.4,0.17-0.429,0.372L188.99,46.023z"/>
				</g>
			</g>
			<g>
				<g>
					<path fill="#FFFFFF" d="M219.514,30.797c0.206,0,0.548,0,0.754,0h0.562c0.208,0,0.378-0.166,0.378-0.376V12.948
						c0-0.21-0.171-0.379-0.378-0.379h-1.392c-0.207,0-0.549,0-0.754,0h-3.394c-0.207,0-0.549,0-0.754,0h-17.2
						c-0.209,0-0.548,0-0.755,0h-5.255c-0.209,0-0.444,0-0.521,0c-0.078,0-0.141,0.169-0.141,0.379v17.473
						c0,0.208,0.064,0.375,0.141,0.375s0.311,0,0.521,0h5.255c0.208,0,0.547,0,0.755,0h17.2c0.208,0,0.547,0,0.755,0L219.514,30.797
						L219.514,30.797z M214.912,20.114c0,0.209-0.17,0.38-0.377,0.38h-5.076c-0.208,0-0.376-0.171-0.376-0.38v-4.782
						c0-0.208,0.168-0.376,0.376-0.376h5.076c0.207,0,0.377,0.168,0.377,0.376V20.114z M202.413,14.955
						c0.208,0,0.378,0.168,0.378,0.375v4.783c0,0.209-0.171,0.38-0.378,0.38h-5.077c-0.208,0-0.378-0.17-0.378-0.38v-4.783
						c0-0.208,0.168-0.375,0.378-0.375H202.413z M196.958,23.255c0-0.209,0.169-0.377,0.378-0.377h5.077
						c0.208,0,0.378,0.168,0.378,0.377v4.782c0,0.208-0.171,0.378-0.378,0.378h-5.077c-0.208,0-0.378-0.17-0.378-0.378V23.255z
						 M209.46,28.413c-0.208,0-0.376-0.168-0.376-0.377v-4.782c0-0.208,0.168-0.377,0.376-0.377h5.076
						c0.207,0,0.377,0.169,0.377,0.377v4.782c0,0.208-0.17,0.377-0.377,0.377H209.46z"/>
				</g>
			</g>
			<g>
				<g>
					<path fill="#FFFFFF" d="M207.65,43.246c0.034,0.207,0.23,0.372,0.435,0.372h4.998c0.207,0,0.351-0.164,0.317-0.372
						l-1.651-10.262c-0.035-0.203-0.232-0.37-0.437-0.371l-5-0.006c-0.206,0-0.349,0.164-0.315,0.37L207.65,43.246z"/>
				</g>
			</g>
		</g>
		<g>
			<g>
				<g>
					<path fill="#FFFFFF" d="M147.68,46.093c-0.008,0.207,0.155,0.376,0.364,0.376h1.627c0.209,0,0.385-0.168,0.393-0.376
						l0.831-22.155c0.011-0.208-0.154-0.375-0.362-0.375h-1.63c-0.208,0-0.383,0.166-0.392,0.375L147.68,46.093z"/>
				</g>
			</g>
			<g>
				<g>
					<path fill="#FFFFFF" d="M160.217,23.565c-0.209,0-0.372,0.166-0.364,0.377l0.831,22.152c0.01,0.206,0.186,0.376,0.394,0.376
						h1.63c0.208,0,0.37-0.169,0.362-0.376l-0.833-22.153c-0.004-0.211-0.184-0.378-0.391-0.378h-1.629V23.565L160.217,23.565z"/>
				</g>
			</g>
			<g>
				<g>
					<path fill="#FFFFFF" d="M158.596,12.948c0-0.21-0.168-0.379-0.376-0.379h-5.538c-0.207,0-0.378,0.17-0.378,0.379v4.825
						c0,0.21-0.168,0.38-0.377,0.38h-4.1c-0.206,0-0.377,0.168-0.377,0.375v1.631c0,0.209,0.17,0.38,0.377,0.38h4.1
						c0.208,0,0.377,0.168,0.377,0.375v27.052c0,0.21,0.171,0.377,0.378,0.377h5.538c0.207,0,0.376-0.166,0.376-0.377V20.914
						c0-0.208,0.17-0.375,0.378-0.375h4.098c0.207,0,0.377-0.17,0.377-0.379v-1.631c0-0.206-0.17-0.375-0.377-0.375h-4.098
						c-0.208,0-0.378-0.17-0.378-0.38V12.948z"/>
				</g>
			</g>
			<g>
				<g>
					<path fill="#FFFFFF" d="M165.136,46.093c-0.008,0.207,0.155,0.376,0.363,0.376h1.63c0.207,0,0.384-0.168,0.391-0.376
						l0.832-22.155c0.01-0.208-0.156-0.375-0.362-0.375h-1.628c-0.21,0-0.385,0.166-0.395,0.375L165.136,46.093z"/>
				</g>
			</g>
			<g>
				<g>
					<path fill="#FFFFFF" d="M177.673,23.565c-0.205,0-0.373,0.166-0.364,0.377l0.834,22.153c0.007,0.207,0.183,0.376,0.392,0.376
						h1.629c0.208,0,0.37-0.168,0.361-0.376l-0.829-22.153c-0.01-0.211-0.185-0.377-0.395-0.377H177.673z"/>
				</g>
			</g>
			<g>
				<g>
					<path fill="#FFFFFF" d="M176.434,18.154c-0.208,0-0.379-0.17-0.379-0.379v-4.826c0-0.21-0.169-0.379-0.375-0.379h-5.539
						c-0.207,0-0.379,0.17-0.379,0.379v4.825c0,0.21-0.168,0.38-0.375,0.38h-4.099c-0.209,0-0.378,0.168-0.378,0.375v1.631
						c0,0.209,0.169,0.38,0.378,0.38h4.099c0.208,0,0.375,0.168,0.375,0.375v27.052c0,0.21,0.169,0.377,0.379,0.377h5.539
						c0.206,0,0.375-0.166,0.375-0.377V20.914c0-0.208,0.17-0.375,0.379-0.375h4.096c0.208,0,0.378-0.17,0.378-0.379v-1.631
						c0-0.206-0.17-0.375-0.378-0.375L176.434,18.154L176.434,18.154z"/>
				</g>
			</g>
		</g>
		<g>
			<g>
				<g>
					<path fill="#FFFFFF" d="M241.35,12.931c0-0.206-0.168-0.375-0.377-0.375h-5.541c-0.205,0-0.378,0.169-0.378,0.375v3.64
						c0,0.204-0.17,0.377-0.376,0.377h-3.785c-0.208,0-0.377,0.17-0.377,0.376v1.632c0,0.208,0.168,0.378,0.377,0.378h3.786
						c0.205,0,0.378,0.165,0.378,0.376v18.963c0,0.205-0.17,0.377-0.378,0.377h-0.759c-0.208,0-0.379-0.171-0.379-0.377V22.823
						c0-0.207-0.169-0.376-0.377-0.376h-1.63c-0.208,0-0.379,0.169-0.379,0.376v18.232c0,0.209,0.17,0.379,0.379,0.379h0.439
						c0.205,0,0.544,0,0.752,0h0.441c0.207,0,0.548,0,0.754,0h0.759c0.205,0,0.376,0.171,0.376,0.376v6.143
						c0,0.207,0.134,0.38,0.301,0.38c0.165,0,0.471,0,0.679,0h4.937c0.208,0,0.549,0,0.754,0h3.275c0.206,0,0.414-0.167,0.457-0.369
						l0.354-1.647c0.043-0.205-0.091-0.368-0.297-0.368h-3.789c-0.206,0-0.376-0.175-0.376-0.377v-3.761
						c0-0.204,0.17-0.376,0.376-0.376h0.759c0.206,0,0.547,0,0.754,0h1.292c0.208,0,0.454,0,0.547,0s0.17-0.168,0.17-0.379V22.823
						c0-0.207-0.173-0.376-0.378-0.376h-1.632c-0.208,0-0.377,0.169-0.377,0.376v15.849c0,0.205-0.172,0.378-0.377,0.378h-0.76
						c-0.205,0-0.376-0.172-0.376-0.378V19.71c0-0.211,0.171-0.377,0.376-0.377h3.787c0.207,0,0.377-0.169,0.377-0.378v-1.632
						c0-0.206-0.169-0.377-0.377-0.377h-3.787c-0.205,0-0.376-0.169-0.376-0.376v-3.639H241.35L241.35,12.931z"/>
				</g>
			</g>
			<g>
				<g>
					<path fill="#FFFFFF" d="M264.98,14.941c0.207,0,0.378-0.17,0.378-0.377v-1.632c0-0.206-0.169-0.375-0.378-0.375h-18.713
						c-0.206,0-0.378,0.169-0.378,0.375v1.632c0,0.205,0.17,0.377,0.378,0.377h7.311c0.208,0,0.343,0.169,0.305,0.371l-0.54,2.778
						c-0.04,0.207-0.158,0.372-0.266,0.372s-0.362,0-0.571,0h-4.428c-0.21,0-0.491,0-0.629,0c-0.138,0-0.25,0.169-0.25,0.377v23.75
						c0,0.21,0.111,0.382,0.25,0.382c0.138,0,0.253,0,0.259,0c0.004,0-0.023,0.161-0.059,0.365l-0.904,4.652
						c-0.041,0.204,0.095,0.368,0.305,0.368h4.997c0.208,0,0.412-0.161,0.448-0.368l0.903-4.652c0.04-0.204,0.242-0.365,0.45-0.365
						h4.334c0.21,0,0.412,0.161,0.449,0.365l0.904,4.652c0.04,0.204,0.241,0.368,0.451,0.368h4.995c0.207,0,0.346-0.161,0.305-0.368
						l-0.904-4.667c-0.04-0.199,0.014-0.367,0.116-0.367c0.104-0.005,0.188-0.172,0.188-0.378V18.838
						c0-0.208-0.171-0.378-0.377-0.378h-2.087c-0.208,0-0.547,0-0.755,0h-2.066c-0.207,0-0.345-0.167-0.306-0.371l0.539-2.781
						c0.042-0.202,0.241-0.369,0.45-0.369h4.897l0,0L264.98,14.941L264.98,14.941z M259.002,32.213c0,0.205-0.17,0.375-0.377,0.375
						h-5.364c-0.209,0-0.379-0.167-0.379-0.375v-3.542c0-0.204,0.169-0.376,0.379-0.376h5.364c0.206,0,0.377,0.17,0.377,0.376
						V32.213z M252.881,35.351c0-0.211,0.17-0.379,0.379-0.379h5.364c0.206,0,0.377,0.167,0.377,0.379v4.853
						c0,0.21-0.169,0.379-0.377,0.379h-5.364c-0.209,0-0.379-0.168-0.379-0.379V35.351z M253.261,25.909
						c-0.209,0-0.379-0.17-0.379-0.377v-4.309c0-0.208,0.169-0.379,0.379-0.379h5.364c0.206,0,0.377,0.17,0.377,0.379v4.309
						c0,0.207-0.17,0.377-0.377,0.377H253.261z"/>
				</g>
			</g>
		</g>
		<g>
			<g>
				<g>
					<path fill="#FFFFFF" d="M456.013,20.1c0.211,0.002,0.5-0.12,0.643-0.265l0.4-0.396c0.146-0.145,0.385-0.145,0.535,0
						l0.396,0.396c0.145,0.145,0.437,0.269,0.641,0.265l4.922-0.001c0.205,0,0.257-0.121,0.109-0.269l-3.234-3.222
						c-0.145-0.144-0.145-0.386,0-0.533l3.234-3.222c0.147-0.149,0.096-0.268-0.109-0.268h-4.926c-0.206,0-0.497,0.119-0.642,0.268
						l-0.393,0.39c-0.15,0.149-0.39,0.149-0.537,0l-0.389-0.39c-0.15-0.149-0.438-0.268-0.646-0.268h-4.921
						c-0.21,0-0.259,0.119-0.112,0.268l3.233,3.222c0.147,0.145,0.147,0.385,0,0.533l-3.233,3.222
						c-0.146,0.148-0.098,0.269,0.112,0.269L456.013,20.1z"/>
				</g>
			</g>
			<g>
				<g>
					<path fill="#FFFFFF" d="M456.013,28.381c0.211,0,0.5-0.118,0.643-0.265l0.4-0.395c0.146-0.146,0.385-0.146,0.535,0l0.396,0.395
						c0.145,0.145,0.437,0.265,0.641,0.265l4.922-0.002c0.205,0,0.257-0.12,0.109-0.268l-3.234-3.223
						c-0.145-0.143-0.145-0.387,0-0.53l3.234-3.226c0.147-0.145,0.096-0.264-0.109-0.264h-4.926c-0.206,0-0.497,0.12-0.642,0.264
						l-0.393,0.393c-0.15,0.146-0.39,0.146-0.537,0l-0.389-0.393c-0.15-0.145-0.438-0.264-0.646-0.264h-4.921
						c-0.21,0-0.259,0.12-0.112,0.264l3.233,3.226c0.147,0.145,0.147,0.387,0,0.53l-3.233,3.223
						c-0.146,0.148-0.098,0.268,0.112,0.268L456.013,28.381z"/>
				</g>
			</g>
			<g>
				<g>
					<path fill="#FFFFFF" d="M473.041,29.309c-0.208,0-0.38-0.17-0.38-0.378v-2.258c0-0.205,0-0.547,0-0.755v-1.631
						c0-0.206,0-0.545,0-0.753v-2.195c0-0.206,0-0.545,0-0.755v-1.628c0-0.211,0-0.545,0-0.754v-2.203c0-0.212,0-0.55,0-0.756
						v-0.441c0-0.202,0-0.543,0-0.754v-0.436c0-0.209-0.168-0.378-0.378-0.378h-7.073c-0.202,0-0.373,0.168-0.373,0.378v1.629
						c0,0.208,0.168,0.379,0.373,0.379h1.393c0.204,0,0.376,0.171,0.376,0.379v2.206c0,0.208-0.171,0.378-0.376,0.378h-1.393
						c-0.202,0-0.373,0.166-0.373,0.376v1.628c0,0.209,0.168,0.379,0.373,0.379h1.393c0.204,0,0.376,0.169,0.376,0.375v2.196
						c0,0.205-0.171,0.375-0.376,0.375h-1.393c-0.202,0-0.373,0.171-0.373,0.376v1.632c0,0.21,0.168,0.378,0.373,0.378h1.393
						c0.204,0,0.376,0.171,0.376,0.377v2.26c0,0.205-0.171,0.376-0.376,0.376h-18.559c-0.207,0-0.378-0.171-0.378-0.376v-2.262
						c0-0.205,0.169-0.377,0.378-0.377h1.387c0.209,0,0.379-0.17,0.379-0.378v-1.631c0-0.206-0.169-0.378-0.379-0.378h-1.387
						c-0.207,0-0.378-0.168-0.378-0.375v-2.195c0-0.206,0.169-0.375,0.378-0.375h1.387c0.209,0,0.379-0.169,0.379-0.379v-1.628
						c0-0.211-0.169-0.377-0.379-0.377h-1.387c-0.207,0-0.378-0.169-0.378-0.378v-2.204c0-0.21,0.169-0.38,0.378-0.38h1.387
						c0.209,0,0.379-0.167,0.379-0.377v-1.63c0-0.21-0.169-0.377-0.379-0.377h-7.073c-0.205,0-0.378,0.168-0.378,0.377v0.436
						c0,0.207,0,0.549,0,0.754v0.439c0,0.206,0,0.547,0,0.755V18.2c0,0.209,0,0.544,0,0.755v1.627c0,0.21,0,0.549,0,0.756v2.195
						c0,0.206,0,0.546,0,0.751v1.632c0,0.208,0,0.548,0,0.755v2.258c0,0.208-0.166,0.377-0.377,0.377h-0.285
						c-0.209,0-0.52,0-0.692,0s-0.312,0.168-0.312,0.378v4.661c0,0.21,0.171,0.378,0.38,0.378l4.615-0.002
						c0.205,0,0.373,0.173,0.373,0.378v0.667c0,0.213,0.171,0.381,0.378,0.381h15.69c0.205,0,0.223,0.077,0.04,0.172l-4.745,2.478
						c-0.186,0.098-0.506,0.175-0.711,0.175h-1.471c-0.212,0-0.552,0-0.755,0h-12.525c-0.212,0-0.381,0.171-0.381,0.378v1.631
						c0,0.206,0.169,0.38,0.381,0.38h12.524c0.204,0,0.373,0.168,0.373,0.376v3.83c0,0.205-0.167,0.375-0.373,0.375h-4.128
						c-0.209,0-0.343,0.167-0.302,0.37l0.357,1.649c0.043,0.202,0.246,0.366,0.455,0.366h7.707c0.204,0,0.377,0,0.377-0.001
						c0,0,0.167-0.004,0.379-0.004h0.839c0.204,0,0.376-0.167,0.376-0.376v-6.209c0-0.205,0.166-0.377,0.379-0.377h12.528
						c0.2,0,0.372-0.173,0.372-0.38v-1.631c0-0.204-0.171-0.377-0.372-0.377h-9.173c-0.208,0-0.227-0.077-0.043-0.175l4.74-2.477
						c0.186-0.095,0.342-0.174,0.349-0.174c0.008,0,0.014-0.168,0.014-0.381v-0.667c0-0.203,0.167-0.374,0.378-0.374l4.613-0.007
						c0.212,0,0.381-0.17,0.381-0.375v-2.274c0-0.207,0-0.547,0-0.754v-1.631c0-0.208-0.169-0.378-0.381-0.378h-0.911V29.309
						L473.041,29.309z M468.646,33.386c0,0.206-0.168,0.377-0.378,0.377h-21.89c-0.212,0-0.379-0.17-0.379-0.377V32.07
						c0-0.207,0.167-0.378,0.379-0.378h21.89c0.21,0,0.378,0.17,0.378,0.378V33.386L468.646,33.386z"/>
				</g>
			</g>
		</g>
		<g>
			<g>
				<g>
					<path fill="#FFFFFF" d="M595.511,20.1c0.207,0.002,0.494-0.12,0.643-0.265l0.395-0.396c0.15-0.145,0.389-0.145,0.533,0
						l0.398,0.396c0.15,0.145,0.438,0.269,0.643,0.265l4.917-0.001c0.21,0,0.259-0.121,0.112-0.269l-3.232-3.222
						c-0.146-0.144-0.146-0.386,0-0.533l3.232-3.222c0.147-0.149,0.098-0.268-0.112-0.268h-4.921c-0.209,0-0.495,0.119-0.645,0.268
						l-0.395,0.39c-0.146,0.149-0.383,0.149-0.534,0l-0.39-0.39c-0.146-0.149-0.439-0.268-0.641-0.268h-4.93
						c-0.201,0-0.258,0.119-0.105,0.268l3.231,3.222c0.149,0.145,0.149,0.385,0,0.533l-3.231,3.222
						c-0.152,0.148-0.093,0.269,0.105,0.269L595.511,20.1z"/>
				</g>
			</g>
			<g>
				<g>
					<path fill="#FFFFFF" d="M595.511,28.381c0.207,0,0.494-0.118,0.643-0.265l0.395-0.395c0.15-0.146,0.389-0.146,0.533,0
						l0.398,0.395c0.15,0.145,0.438,0.265,0.643,0.265l4.917-0.002c0.21,0,0.259-0.12,0.112-0.268l-3.232-3.223
						c-0.146-0.143-0.146-0.387,0-0.53l3.232-3.226c0.147-0.145,0.098-0.264-0.112-0.264h-4.921c-0.209,0-0.495,0.12-0.645,0.264
						l-0.395,0.393c-0.146,0.146-0.383,0.146-0.534,0l-0.39-0.393c-0.146-0.145-0.439-0.264-0.641-0.264h-4.93
						c-0.201,0-0.258,0.12-0.105,0.264l3.231,3.226c0.149,0.145,0.149,0.387,0,0.53l-3.231,3.223
						c-0.152,0.148-0.093,0.268,0.105,0.268L595.511,28.381z"/>
				</g>
			</g>
			<g>
				<g>
					<path fill="#FFFFFF" d="M612.534,29.309c-0.207,0-0.376-0.17-0.376-0.378v-2.258c0-0.205,0-0.547,0-0.755v-1.631
						c0-0.206,0-0.545,0-0.753v-2.195c0-0.206,0-0.545,0-0.755v-1.628c0-0.211,0-0.545,0-0.754v-2.203c0-0.212,0-0.55,0-0.756
						v-0.441c0-0.202,0-0.543,0-0.754v-0.436c0-0.209-0.167-0.378-0.378-0.378h-7.072c-0.208,0-0.38,0.168-0.38,0.378v1.629
						c0,0.208,0.171,0.379,0.38,0.379h1.388c0.208,0,0.38,0.171,0.38,0.379v2.206c0,0.208-0.171,0.378-0.38,0.378h-1.388
						c-0.208,0-0.38,0.166-0.38,0.376v1.628c0,0.209,0.171,0.379,0.38,0.379h1.388c0.208,0,0.38,0.169,0.38,0.375v2.196
						c0,0.205-0.171,0.375-0.38,0.375h-1.388c-0.208,0-0.38,0.171-0.38,0.376v1.632c0,0.21,0.171,0.378,0.38,0.378h1.388
						c0.208,0,0.38,0.171,0.38,0.377v2.26c0,0.205-0.171,0.376-0.38,0.376H587.54c-0.209,0-0.38-0.171-0.38-0.376v-2.262
						c0-0.205,0.17-0.377,0.38-0.377h1.387c0.206,0,0.374-0.17,0.374-0.378v-1.631c0-0.206-0.167-0.378-0.374-0.378h-1.387
						c-0.209,0-0.38-0.168-0.38-0.375v-2.195c0-0.206,0.17-0.375,0.38-0.375h1.387c0.206,0,0.374-0.169,0.374-0.379v-1.628
						c0-0.211-0.167-0.377-0.374-0.377h-1.387c-0.209,0-0.38-0.169-0.38-0.378v-2.204c0-0.21,0.17-0.38,0.38-0.38h1.387
						c0.206,0,0.374-0.167,0.374-0.377v-1.63c0-0.21-0.167-0.377-0.374-0.377h-7.069c-0.208,0-0.379,0.168-0.379,0.377v0.436
						c0,0.207,0,0.549,0,0.754v0.439c0,0.206,0,0.547,0,0.755V18.2c0,0.209,0,0.544,0,0.755v1.627c0,0.21,0,0.549,0,0.756v2.195
						c0,0.206,0,0.546,0,0.751v1.632c0,0.208,0,0.548,0,0.755v2.258c0,0.208-0.17,0.377-0.378,0.377h-0.284
						c-0.208,0-0.521,0-0.693,0c-0.172,0-0.312,0.168-0.312,0.378v4.661c0,0.21,0.168,0.378,0.379,0.378l4.613-0.002
						c0.206,0,0.377,0.173,0.377,0.378v0.667c0,0.213,0.169,0.381,0.379,0.381h15.683c0.208,0,0.228,0.077,0.043,0.172l-4.745,2.478
						c-0.185,0.098-0.504,0.175-0.714,0.175h-1.472c-0.205,0-0.545,0-0.755,0h-12.523c-0.207,0-0.378,0.171-0.378,0.378v1.631
						c0,0.206,0.168,0.38,0.378,0.38H593.6c0.21,0,0.382,0.168,0.382,0.376v3.83c0,0.205-0.172,0.375-0.382,0.375h-4.128
						c-0.208,0-0.34,0.167-0.297,0.37l0.352,1.649c0.046,0.202,0.25,0.366,0.457,0.366h7.707c0.21,0,0.38,0,0.38-0.001
						c0,0,0.168-0.004,0.378-0.004h0.835c0.209,0,0.379-0.167,0.379-0.376v-6.209c0-0.205,0.17-0.377,0.377-0.377h12.524
						c0.207,0,0.38-0.173,0.38-0.38v-1.631c0-0.204-0.173-0.377-0.38-0.377h-9.172c-0.201,0-0.223-0.077-0.038-0.175l4.741-2.477
						c0.185-0.095,0.342-0.174,0.348-0.174c0.009,0,0.016-0.168,0.016-0.381v-0.667c0-0.203,0.17-0.374,0.377-0.374l4.615-0.007
						c0.207,0,0.377-0.17,0.377-0.375v-2.274c0-0.207,0-0.547,0-0.754v-1.631c0-0.208-0.168-0.378-0.377-0.378h-0.914
						L612.534,29.309L612.534,29.309L612.534,29.309z M608.143,33.386c0,0.206-0.174,0.377-0.38,0.377h-21.896
						c-0.203,0-0.373-0.17-0.373-0.377V32.07c0-0.207,0.168-0.378,0.373-0.378h21.896c0.205,0,0.38,0.17,0.38,0.378V33.386z"/>
				</g>
			</g>
		</g>
		<g>
			<g>
				<path fill="#FFFFFF" d="M482.023,45.937c-0.006,0.211,0.154,0.381,0.361,0.381h1.633c0.21,0,0.383-0.17,0.393-0.381l0.83-22.154
					c0.013-0.207-0.154-0.377-0.361-0.377h-1.632c-0.205,0-0.384,0.169-0.392,0.377L482.023,45.937z"/>
			</g>
			<g>
				<path fill="#FFFFFF" d="M509.678,29.933c-0.206,0-0.475,0.14-0.593,0.309l-3.116,4.493c-0.121,0.171-0.314,0.171-0.431,0
					l-3.118-4.493c-0.117-0.169-0.388-0.309-0.592-0.309h-4.931c-0.207,0-0.279,0.14-0.159,0.309l5.958,8.585
					c0.12,0.168,0.12,0.45,0,0.623l-5.958,8.583c-0.121,0.172-0.05,0.308,0.159,0.307l4.936-0.007
					c0.205-0.003,0.474-0.14,0.595-0.312l3.11-4.481c0.117-0.172,0.311-0.172,0.429,0l3.108,4.481
					c0.123,0.172,0.391,0.309,0.596,0.312l4.937,0.007c0.205,0.001,0.277-0.135,0.161-0.307l-5.958-8.583
					c-0.117-0.172-0.117-0.453,0-0.623l5.958-8.585c0.117-0.169,0.045-0.309-0.161-0.309H509.678z"/>
			</g>
			<g>
				<path fill="#FFFFFF" d="M500.3,28.419c0.204,0.001,0.456-0.148,0.557-0.329l3.643-6.874c0.102-0.182,0.011-0.334-0.198-0.335
					l-4.929-0.016c-0.207-0.002-0.457,0.151-0.557,0.331l-3.404,6.413c-0.096,0.183-0.186,0.163-0.191-0.043l-0.142-3.781
					c-0.007-0.207-0.185-0.379-0.393-0.379h-1.63c-0.207,0-0.372,0.17-0.361,0.379l0.828,22.153
					c0.014,0.211,0.187,0.383,0.395,0.383h1.63c0.206,0,0.369-0.172,0.364-0.383l-0.646-17.154c-0.012-0.21,0.157-0.377,0.363-0.377
					L500.3,28.419z"/>
			</g>
			<g>
				<path fill="#FFFFFF" d="M507.202,20.88c-0.203,0.001-0.297,0.154-0.195,0.335l3.647,6.874c0.095,0.18,0.345,0.331,0.552,0.329
					l4.935-0.014c0.21,0,0.296-0.151,0.198-0.333l-3.652-6.875c-0.095-0.181-0.346-0.333-0.555-0.331L507.202,20.88z"/>
			</g>
			<g>
				<path fill="#FFFFFF" d="M495.198,20.384c0.206,0,0.375-0.17,0.375-0.378v-1.628c0-0.209-0.168-0.377-0.375-0.377h-3.014
					c-0.206,0-0.375-0.169-0.375-0.377v-4.675c0-0.21-0.171-0.38-0.377-0.38h-4.932c-0.207,0-0.381,0.169-0.381,0.38v4.674
					c0,0.205-0.163,0.377-0.374,0.377h-3.009c-0.209,0-0.377,0.168-0.377,0.377v1.629c0,0.208,0.168,0.378,0.377,0.378h3.011
					c0.208,0,0.374,0.169,0.374,0.376v27.207c0,0.208,0.171,0.375,0.38,0.375l4.933-0.015c0.203-0.004,0.376-0.171,0.376-0.379
					V20.76c0-0.205,0.167-0.377,0.374-0.377L495.198,20.384L495.198,20.384z"/>
			</g>
			<g>
				<path fill="#FFFFFF" d="M515.129,17.184c0-0.21-0.167-0.378-0.379-0.378h-5.781c-0.203,0-0.378-0.169-0.378-0.378v-3.48
					c0-0.21-0.167-0.379-0.378-0.379h-4.935c-0.2,0-0.369,0.169-0.369,0.379v3.483c0,0.205-0.172,0.377-0.383,0.377h-5.779
					c-0.209,0-0.377,0.169-0.377,0.378v1.629c0,0.207,0.166,0.376,0.377,0.376h17.997c0.209,0,0.38-0.169,0.38-0.376L515.129,17.184
					L515.129,17.184z"/>
			</g>
		</g>
		<g>
			<g>
				<g>
					<path fill="#FFFFFF" d="M132.538,32.858c-0.208,0-0.548,0-0.755,0h-18.711c-0.208,0-0.545,0-0.756,0h-5.537
						c-0.208,0-0.378,0.168-0.378,0.375v1.634c0,0.207,0,0.545,0,0.755v9.959c0,0.211,0,0.551,0,0.756v1.63
						c0,0.21,0.169,0.377,0.378,0.377h5.538c0.211,0,0.548,0,0.756,0h18.709c0.208,0,0.548,0,0.756,0h2.43c0.207,0,0.547,0,0.754,0
						h2.355c0.208,0,0.378-0.166,0.378-0.377V33.233c0-0.204-0.168-0.376-0.378-0.376h-3.182c-0.208,0-0.546,0-0.755,0
						L132.538,32.858L132.538,32.858z M131.781,35.24c0.209,0,0.378,0.168,0.378,0.378v3.416c0,0.202-0.169,0.374-0.378,0.374
						h-18.709c-0.208,0-0.378-0.171-0.378-0.374v-3.416c0-0.207,0.169-0.378,0.378-0.378H131.781z M113.072,45.959
						c-0.208,0-0.378-0.167-0.378-0.378v-3.41c0-0.207,0.169-0.375,0.378-0.375h18.709c0.208,0,0.377,0.168,0.377,0.375v3.411
						c0,0.21-0.169,0.378-0.377,0.378L113.072,45.959L113.072,45.959z"/>
				</g>
			</g>
			<g>
				<g>
					<path fill="#FFFFFF" d="M139.233,19.288c0.208,0,0.378-0.169,0.378-0.378v-1.627c0-0.208-0.17-0.378-0.378-0.378h-6.557
						c-0.208,0-0.349-0.167-0.317-0.373l0.594-3.588c0.034-0.205-0.108-0.376-0.314-0.376h-5.541c-0.208,0-0.407,0.171-0.441,0.376
						l-0.595,3.588c-0.034,0.206-0.231,0.373-0.435,0.373h-6.395c-0.207,0-0.406-0.167-0.441-0.374l-0.592-3.589
						c-0.035-0.205-0.233-0.375-0.439-0.375h-5.539c-0.207,0-0.348,0.17-0.318,0.375l0.595,3.589
						c0.033,0.205-0.109,0.374-0.317,0.374h-6.808c-0.209,0-0.378,0.169-0.378,0.378v1.628c0,0.208,0.169,0.379,0.378,0.379h8.234
						c0.209,0,0.378,0.171,0.378,0.378v8.561c0,0.207-0.168,0.378-0.378,0.378h-1.172c-0.209,0-0.415-0.167-0.458-0.369
						l-1.421-6.562c-0.044-0.202-0.248-0.37-0.458-0.37h-2.799c-0.207,0-0.343,0.168-0.297,0.37l1.421,6.562
						c0.043,0.203-0.091,0.368-0.297,0.368h-2.753c-0.21,0-0.379,0.171-0.379,0.375v1.632c0,0.208,0.169,0.375,0.379,0.375h33.858
						c0.208,0,0.378-0.167,0.378-0.375v-1.632c0-0.207-0.169-0.375-0.378-0.375h-2.474c-0.209,0-0.344-0.165-0.301-0.368
						l1.421-6.562c0.043-0.203-0.089-0.37-0.299-0.37h-2.798c-0.208,0-0.415,0.168-0.458,0.37l-1.419,6.562
						c-0.044,0.203-0.25,0.368-0.457,0.368h-1.059c-0.208,0-0.376-0.168-0.376-0.378v-8.562c0-0.207,0.168-0.379,0.376-0.379
						L139.233,19.288L139.233,19.288L139.233,19.288z M124.719,28.227c0,0.208-0.169,0.378-0.375,0.378h-3.687
						c-0.207,0-0.377-0.17-0.377-0.378v-8.562c0-0.207,0.169-0.378,0.377-0.378h3.687c0.206,0,0.375,0.171,0.375,0.378V28.227z"/>
				</g>
			</g>
		</g>
		<g>
			<g>
				<path fill="#FFFFFF" d="M404.203,41.003c-0.21-0.001-0.297,0.148-0.188,0.328l3.302,5.569c0.107,0.181,0.365,0.331,0.572,0.331
					h4.938c0.209,0,0.289-0.152,0.182-0.331l-3.297-5.555c-0.107-0.178-0.362-0.326-0.573-0.326L404.203,41.003z"/>
			</g>
			<g>
				<path fill="#FFFFFF" d="M432.298,15.088c0-0.209-0.17-0.379-0.382-0.379h-8.878c-0.211,0-0.344-0.165-0.288-0.368l0.279-1.101
					c0.049-0.201-0.081-0.365-0.286-0.365l-4.94,0.014c-0.209,0-0.421,0.169-0.472,0.369l-2.052,8.081
					c-0.052,0.203-0.265,0.365-0.474,0.365h-1.249c-0.204,0-0.403-0.167-0.437-0.373l-0.595-3.885
					c-0.031-0.206,0.114-0.377,0.321-0.377h2.398c0.208,0,0.379-0.168,0.379-0.379v-1.603c0-0.209-0.17-0.378-0.379-0.378h-8.882
					c-0.21,0-0.337-0.166-0.285-0.368l0.276-1.102c0.055-0.201-0.074-0.365-0.284-0.365l-4.939,0.013
					c-0.211,0-0.422,0.17-0.471,0.369l-2.053,8.081c-0.047,0.203,0.078,0.366,0.287,0.366h4.936c0.209,0,0.42-0.164,0.477-0.366
					l0.986-3.898c0.053-0.205,0.267-0.37,0.476-0.37h0.625c0.207,0,0.405,0.169,0.437,0.378l0.598,3.885
					c0.029,0.206,0.229,0.374,0.437,0.374h4.02c0.207,0,0.379,0.17,0.379,0.379v2.054c0,0.208-0.171,0.379-0.379,0.379H400.99
					c-0.208,0-0.378,0.17-0.378,0.378v1.604c0,0.21,0.171,0.378,0.378,0.378h10.894c0.207,0,0.379,0.169,0.379,0.379v2.756
					c0,0.207-0.171,0.379-0.379,0.379h-12.187c-0.209,0-0.38,0.171-0.38,0.379v1.605c0,0.209,0.17,0.38,0.38,0.38h21.979
					c0.211,0,0.383,0.166,0.383,0.379v2.756c0,0.211-0.173,0.377-0.383,0.377h-21.979c-0.209,0-0.38,0.173-0.38,0.382v1.602
					c0,0.21,0.17,0.379,0.38,0.379h21.979c0.211,0,0.383,0.17,0.383,0.382v6.289c0,0.21-0.173,0.378-0.383,0.378h-6.845
					c-0.207,0-0.34,0.167-0.299,0.375l0.35,1.617c0.044,0.204,0.249,0.371,0.46,0.371h7.622c0.209,0,0.38,0,0.38,0
					s0.167-0.003,0.377-0.003l3.586-0.005c0.209-0.002,0.378-0.172,0.378-0.38v-8.642c0-0.209,0.17-0.381,0.38-0.381h3.49
					c0.206,0,0.378-0.17,0.378-0.38v-1.601c0-0.209-0.169-0.381-0.378-0.381h-3.49c-0.209,0-0.38-0.166-0.38-0.379v-2.754
					c0-0.211,0.17-0.381,0.38-0.381h3.49c0.206,0,0.378-0.169,0.378-0.378v-1.602c0-0.209-0.169-0.38-0.378-0.38h-13.285
					c-0.207,0-0.379-0.172-0.379-0.38v-2.758c0-0.209,0.171-0.378,0.379-0.378h11.286c0.209,0,0.382-0.171,0.382-0.379V24.9
					c0-0.208-0.174-0.378-0.382-0.378h-11.286c-0.207,0-0.379-0.172-0.379-0.378v-2.054c0-0.209,0.171-0.379,0.379-0.379h2.234
					c0.206,0,0.42-0.165,0.469-0.366l0.991-3.896c0.051-0.204,0.264-0.371,0.47-0.371h0.632c0.204,0,0.403,0.17,0.436,0.378
					l0.596,3.883c0.031,0.206,0.227,0.374,0.439,0.374h4.937c0.211,0,0.352-0.168,0.32-0.374l-0.596-3.883
					c-0.031-0.207,0.111-0.378,0.322-0.378h2.401c0.209,0,0.379-0.169,0.379-0.377v-1.612H432.298L432.298,15.088z"/>
			</g>
		</g>
		<g>
			<g>
				<path fill="#FFFFFF" d="M293.306,16.063c-0.206,0-0.378-0.171-0.378-0.379v-2.623c0-0.208-0.17-0.377-0.376-0.377h-5.476
					c-0.209,0-0.378,0.169-0.378,0.377v2.624c0,0.208-0.171,0.378-0.381,0.378h-12.556c-0.211,0-0.38,0.172-0.38,0.379v1.605
					c0,0.206,0.169,0.376,0.38,0.376h32.105c0.209,0,0.377-0.171,0.377-0.376V16.44c0-0.206-0.169-0.377-0.377-0.377L293.306,16.063
					L293.306,16.063z"/>
			</g>
			<g>
				<path fill="#FFFFFF" d="M300.741,30.797c-0.21,0-0.55,0-0.759,0h-20.34c-0.207,0-0.549,0-0.756,0h-4.484
					c-0.21,0-0.467,0-0.575,0c-0.107,0-0.192,0.169-0.192,0.379v16.676c0,0.208,0.172,0.38,0.379,0.38l4.872-0.012
					c0.208,0,0.379-0.171,0.379-0.379V33.536c0-0.207,0.171-0.378,0.377-0.378h20.339c0.208,0,0.379,0.171,0.379,0.378v11.956
					c0,0.205-0.17,0.376-0.379,0.376h-3.3c-0.209,0-0.344,0.17-0.3,0.371l0.348,1.621c0.043,0.203,0.251,0.372,0.458,0.372h7.624
					c0.21,0,0.378-0.001,0.38-0.007c0,0,0.171-0.003,0.378-0.003h0.042c0.208,0,0.375-0.172,0.375-0.38V31.177
					c0-0.209-0.121-0.379-0.272-0.379s-0.442,0-0.652,0H300.741z"/>
			</g>
			<g>
				<path fill="#FFFFFF" d="M300.094,28.863c0.208,0,0.379,0,0.379-0.002c0,0,0.169,0,0.379,0l1.48-0.001
					c0.208,0,0.379-0.173,0.379-0.378v-7.413c0-0.208-0.17-0.378-0.379-0.378h-1.48c-0.21,0-0.55,0-0.757,0h-2.633
					c-0.208,0-0.551,0-0.759,0h-19.408c-0.208,0-0.378,0.131-0.378,0.291c0,0.161,0,0.463,0,0.67v1.021c0,0.209,0,0.552,0,0.757
					v2.692c0,0.209,0,0.552,0,0.759v1.602c0,0.208,0.17,0.379,0.378,0.379L300.094,28.863L300.094,28.863L300.094,28.863z
					 M282.926,26.502c-0.211,0-0.38-0.174-0.38-0.381v-2.691c0-0.207,0.17-0.377,0.38-0.377h13.775c0.209,0,0.379,0.169,0.379,0.377
					v2.691c0,0.21-0.17,0.381-0.379,0.381H282.926z"/>
			</g>
			<g>
				<path fill="#FFFFFF" d="M297.734,45.008c0-0.003,0.172-0.003,0.378-0.003h0.065c0.208,0,0.378-0.171,0.378-0.38v-9.566
					c0-0.206-0.17-0.38-0.378-0.38h-0.065c-0.207,0-0.55,0-0.759,0h-4.047c-0.208,0-0.55,0-0.757,0h-5.47c-0.21,0-0.551,0-0.758,0
					h-4.578c-0.21,0-0.445,0-0.524,0c-0.081,0-0.146,0.172-0.146,0.38v9.572c0,0.205,0.067,0.378,0.146,0.378s0.145,0,0.145,0
					s0.169,0,0.38,0h15.611C297.562,45.008,297.734,45.008,297.734,45.008z M287.079,42.649c-0.209,0-0.379-0.169-0.379-0.379
					v-4.853c0-0.209,0.173-0.378,0.379-0.378h5.47c0.208,0,0.377,0.167,0.377,0.378v4.853c0,0.209-0.169,0.379-0.377,0.379H287.079z
					"/>
			</g>
		</g>
		<g>
			<g>
				<path fill="#FFFFFF" d="M314.866,47.819c0,0.205,0.167,0.377,0.377,0.377l2.669-0.002c0.209,0,0.38-0.173,0.38-0.383V37.365
					c0-0.21-0.171-0.377-0.38-0.377h-2.669c-0.209,0-0.377,0.166-0.377,0.377V47.819z"/>
			</g>
			<g>
				<path fill="#FFFFFF" d="M348.266,48.196c0.209,0,0.305-0.152,0.217-0.341l-4.755-10.049c-0.09-0.188-0.101-0.5-0.022-0.694
					l3.983-9.906c0.078-0.193,0.141-0.522,0.141-0.732v-1.602c0-0.208-0.17-0.38-0.379-0.38h-2.919
					c-0.208,0-0.331-0.162-0.278-0.364l2.157-7.794c0.056-0.204,0.103-0.536,0.103-0.747v-1.603c0-0.208-0.173-0.379-0.378-0.379
					h-16.194c-0.208,0-0.38,0.171-0.38,0.379v26.264c0,0.205-0.065,0.535-0.144,0.73l-2.102,5.082
					c-0.079,0.195-0.147,0.181-0.147-0.024v-8.671c0-0.21-0.168-0.377-0.377-0.377h-2.671c-0.209,0-0.38,0.166-0.38,0.377v10.455
					c0,0.205,0.17,0.377,0.38,0.377l1.935-0.002c0.209,0,0.377,0,0.377,0c0,0.004,0.167,0.006,0.377,0.006h4.938
					c0.209,0,0.445-0.155,0.522-0.348l2.776-6.81c0.079-0.195,0.143-0.521,0.143-0.732v-8.144c0-0.206,0.073-0.225,0.164-0.035
					l2.356,4.978c0.088,0.188,0.098,0.499,0.021,0.694l-4.032,10.039c-0.076,0.194,0.032,0.351,0.24,0.351h4.936
					c0.212,0,0.444-0.156,0.522-0.351l1.419-3.524c0.078-0.196,0.213-0.199,0.303-0.014l1.671,3.535
					c0.091,0.188,0.335,0.346,0.542,0.346L348.266,48.196z M339.695,29.288c-0.091-0.188-0.333-0.342-0.542-0.342l-3.586-0.015
					c-0.208,0-0.381-0.172-0.381-0.381V16.349c0-0.21,0.173-0.381,0.381-0.381h4.867c0.209,0,0.336,0.166,0.279,0.368l-2.158,7.794
					c-0.054,0.202-0.102,0.538-0.102,0.746v1.601c0,0.208,0.171,0.379,0.381,0.379h2.909c0.21,0,0.317,0.159,0.235,0.353
					l-1.36,3.386c-0.075,0.196-0.212,0.201-0.301,0.013L339.695,29.288z"/>
			</g>
			<g>
				<path fill="#FFFFFF" d="M319.302,47.819c0,0.205,0.172,0.377,0.38,0.377l2.67-0.002c0.211,0,0.382-0.173,0.382-0.383V37.365
					c0-0.21-0.17-0.377-0.382-0.377h-2.67c-0.208,0-0.38,0.166-0.38,0.377V47.819z"/>
			</g>
			<g>
				<path fill="#FFFFFF" d="M327.167,35.665c0-0.041,0-0.249,0-0.456V33.76c0-0.207,0-0.551,0-0.76v-1.721
					c0-0.206-0.168-0.377-0.378-0.377h-2.115c-0.209,0-0.379,0.17-0.379,0.377V33c0,0.209-0.173,0.381-0.382,0.381h-2.943
					c-0.207,0-0.276-0.134-0.152-0.303l6.135-8.281c0.124-0.167,0.224-0.476,0.224-0.685v-1.601c0-0.208-0.17-0.38-0.378-0.38
					h-5.828c-0.207,0-0.274-0.137-0.152-0.302l6.53-8.81c0.125-0.168,0.057-0.307-0.152-0.307h-4.939
					c-0.208,0-0.48,0.139-0.604,0.305l-6.56,8.812c-0.127,0.166-0.226,0.302-0.226,0.302s0,0.173,0,0.38v1.601
					c0,0.208,0.168,0.378,0.377,0.378h5.858c0.208,0,0.276,0.139,0.151,0.306l-6.164,8.28c-0.125,0.166-0.225,0.471-0.225,0.682
					v1.604c0,0.207,0.168,0.375,0.376,0.375h11.545C327,35.738,327.167,35.708,327.167,35.665z"/>
			</g>
		</g>
		<path fill="#FFFFFF" d="M389.127,18.54h-12.364c-0.209,0-0.381-0.169-0.381-0.377v-5.118c0-0.206-0.17-0.378-0.378-0.378h-4.872
			c-0.21,0-0.378,0.172-0.378,0.378v5.118c0,0.208-0.172,0.378-0.378,0.378H358.01c-0.271,0-0.493,0.22-0.493,0.495V39.22
			c0,0.273,0.217,0.498,0.489,0.498c2.353,0,12.371,0,12.371,0c0.208,0,0.378,0.167,0.378,0.377v7.772
			c0,0.21,0.168,0.378,0.379,0.378l4.872-0.015c0.206-0.002,0.379-0.175,0.379-0.381v-7.754c0-0.206,0.169-0.376,0.379-0.376
			l12.364-0.008c0.271,0,0.491-0.225,0.491-0.493V19.034C389.615,18.763,389.398,18.54,389.127,18.54z M363.527,37.357
			c-0.209,0-0.378-0.172-0.378-0.379V21.283c0-0.208,0.169-0.38,0.378-0.38h6.85c0.207,0,0.378,0.173,0.378,0.38v15.695
			c0,0.206-0.172,0.379-0.378,0.379H363.527L363.527,37.357z M376.763,37.357c-0.209,0-0.381-0.172-0.381-0.379V21.283
			c0-0.208,0.171-0.38,0.381-0.38h6.849c0.206,0,0.378,0.173,0.378,0.38v15.695c0,0.206-0.17,0.379-0.378,0.379H376.763
			L376.763,37.357z"/>
		<g>
			<g>
				<path fill="#FFFFFF" d="M634.385,12.908c0-0.182-0.146-0.327-0.321-0.327h-5.621c-0.176,0-0.323,0.145-0.323,0.327v3.666
					c0,0.177-0.146,0.324-0.32,0.324h-5.238c-0.174,0-0.323,0.144-0.323,0.326v1.725c0,0.178,0.149,0.324,0.323,0.324h17.381
					c0.181,0,0.326-0.145,0.326-0.324v-1.725c0-0.181-0.146-0.325-0.326-0.325h-5.233c-0.181,0-0.326-0.145-0.326-0.324v-3.667
					H634.385z"/>
			</g>
			<g>
				<path fill="#FFFFFF" d="M642.087,13.61c-0.178,0-0.323,0.145-0.323,0.32v34.077c0,0.182,0.147,0.326,0.323,0.326h5.619
					c0.179,0,0.325-0.145,0.325-0.326v-4.069c0-0.176,0.146-0.326,0.323-0.326h6.484c0.175,0,0.32-0.146,0.32-0.322V28.648
					c0-0.177-0.115-0.405-0.267-0.507l-1.186-0.819c-0.146-0.102-0.146-0.268,0-0.369l1.186-0.817
					c0.151-0.1,0.267-0.329,0.267-0.506V13.931c0-0.176-0.146-0.321-0.32-0.321H642.087L642.087,13.61L642.087,13.61z
					 M648.353,41.239c-0.178,0-0.324-0.145-0.324-0.322v-12.27c0-0.177,0.146-0.323,0.324-0.323h1.361
					c0.175,0,0.32,0.146,0.32,0.323v12.27c0,0.178-0.146,0.322-0.32,0.322H648.353z M650.04,25.629c0,0.178-0.151,0.322-0.326,0.322
					h-1.361c-0.178,0-0.322-0.145-0.322-0.322v-9.321c0-0.178,0.145-0.325,0.322-0.325h1.361c0.177,0,0.326,0.147,0.326,0.325
					V25.629z"/>
			</g>
			<g>
				<path fill="#FFFFFF" d="M639.454,22.408c0.027-0.176-0.097-0.319-0.277-0.319l-5.081,0.017c-0.18,0-0.345,0.146-0.374,0.323
					l-0.955,6.298c-0.027,0.176-0.196,0.323-0.372,0.323h-2.277c-0.176,0-0.348-0.146-0.371-0.323l-0.959-6.298
					c-0.022-0.177-0.194-0.323-0.372-0.323l-5.082-0.017c-0.178,0-0.302,0.144-0.272,0.319l0.96,6.319
					c0.024,0.175-0.099,0.321-0.277,0.321h-1.183c-0.181,0-0.327,0.146-0.327,0.325V31.1c0,0.178,0.146,0.324,0.327,0.324h17.382
					c0.179,0,0.326-0.146,0.326-0.324v-1.726c0-0.179-0.148-0.325-0.326-0.325h-1.175c-0.177,0-0.305-0.145-0.274-0.321
					L639.454,22.408z"/>
			</g>
			<g>
				<path fill="#FFFFFF" d="M623.204,34.24c-0.18,0-0.326,0.143-0.326,0.323v13.444c0,0.181,0.146,0.326,0.326,0.326h16.107
					c0.173,0,0.32-0.146,0.32-0.326V34.563c0-0.181-0.147-0.324-0.32-0.324L623.204,34.24L623.204,34.24z M633.971,45.631
					c0,0.182-0.145,0.327-0.322,0.327h-4.786c-0.18,0-0.326-0.148-0.326-0.327v-8.695c0-0.179,0.146-0.324,0.326-0.324h4.786
					c0.178,0,0.322,0.146,0.322,0.324V45.631z"/>
			</g>
		</g>
		<g>
			<g>
				<g>
					<path fill="#FFFFFF" d="M542.467,18.645c-0.207,0.002-0.397,0.172-0.431,0.375l-4.157,27.048
						c-0.027,0.201,0.113,0.368,0.322,0.368h4.975c0.204,0,0.398-0.166,0.435-0.368l4.154-27.07
						c0.031-0.204-0.113-0.369-0.316-0.369L542.467,18.645z"/>
				</g>
			</g>
			<g>
				<g>
					<path fill="#FFFFFF" d="M567.847,19.021c-0.034-0.204-0.229-0.374-0.432-0.375l-4.979-0.015c-0.208,0-0.35,0.166-0.32,0.37
						l4.158,27.07c0.029,0.2,0.225,0.368,0.434,0.368h4.976c0.203,0,0.349-0.167,0.316-0.368L567.847,19.021z"/>
				</g>
			</g>
			<g>
				<g>
					<path fill="#FFFFFF" d="M552.113,45.503c0,0.205-0.168,0.373-0.375,0.373h-3.939c-0.205,0-0.338,0.166-0.296,0.369l0.353,1.638
						c0.044,0.205,0.248,0.371,0.453,0.371h7.675c0.207,0,0.375-0.007,0.375-0.011s0.171-0.009,0.378-0.009l0.661-0.001
						c0.206-0.004,0.377-0.172,0.377-0.38V13.035c0-0.206-0.17-0.376-0.377-0.376h-4.91c-0.205,0-0.375,0.17-0.375,0.376
						L552.113,45.503L552.113,45.503L552.113,45.503L552.113,45.503z"/>
				</g>
			</g>
		</g>
	</g>
</g>
</svg>
