<?xml version="1.0" encoding="utf-8"?>
<!-- Generator: Adobe Illustrator 16.0.0, SVG Export Plug-In . SVG Version: 6.00 Build 0)  -->
<!DOCTYPE svg PUBLIC "-//W3C//DTD SVG 1.1//EN" "http://www.w3.org/Graphics/SVG/1.1/DTD/svg11.dtd">
<svg version="1.1" id="圖層_1" xmlns="http://www.w3.org/2000/svg" xmlns:xlink="http://www.w3.org/1999/xlink" x="0px" y="0px"
	 width="591.91px" height="140.35px" viewBox="0 0 591.91 140.35" enable-background="new 0 0 591.91 140.35" xml:space="preserve">
<g>
	<g>
		<g>
			<g>
				<g>
					<g>
						<g>
							<path fill="#FFE300" d="M183.775,37.094c0,0.133,0.109,0.243,0.243,0.243h1.042c0.134,0,0.165,0.077,0.07,0.171l-7.894,7.826
								c-0.095,0.094-0.172,0.062-0.172-0.072V37.58c0-0.133,0.109-0.243,0.243-0.243h2.217c0.553,0,1.002-0.448,1.002-1.001V25.325
								c0-0.553-0.449-1.003-1.002-1.003h-20.772c-0.553,0-1.002,0.451-1.002,1.003v11.011c0,0.554,0.449,1.001,1.002,1.001h2.217
								c0.134,0,0.243,0.109,0.243,0.243v31.148c0,0.134-0.109,0.243-0.243,0.243h-2.217c-0.553,0-1.002,0.45-1.002,1.002v11.011
								c0,0.554,0.449,1.001,1.002,1.001h20.772c0.553,0,1.002-0.447,1.002-1.001V69.973c0-0.553-0.449-1.002-1.002-1.002h-2.217
								c-0.134,0-0.243-0.109-0.243-0.243v-2.281c0-0.133,0.076-0.321,0.169-0.417l2.361-2.422c0.093-0.096,0.247-0.097,0.342-0.003
								l5.263,5.195c0.095,0.094,0.063,0.17-0.07,0.17h-1.113c-0.134,0-0.243,0.109-0.243,0.243l0.006,11.771
								c0,0.554,0.45,1.001,1.003,1.001h25.407c0.554,0,1.002-0.447,1.002-1.001V69.973c0-0.553-0.448-1.002-1.002-1.002h-3.116
								c-0.134,0-0.32-0.077-0.415-0.171l-15.715-15.645c-0.095-0.094-0.095-0.248,0-0.342l15.301-15.304
								c0.094-0.094,0.28-0.171,0.414-0.171h3.531c0.554,0,1.002-0.448,1.002-1.001V25.325c0-0.553-0.448-1.003-1.002-1.003h-25.407
								c-0.553,0-1.003,0.451-1.003,1.003L183.775,37.094z"/>
						</g>
					</g>
					<g>
						<g>
							<path fill="#FFE300" d="M220.43,37.337h2.216c0.134,0,0.243,0.109,0.243,0.243v31.148c0,0.134-0.109,0.243-0.243,0.243
								h-2.216c-0.554,0-1.003,0.45-1.003,1.002v11.011c0,0.554,0.449,1.001,1.003,1.001H241.2c0.554,0,1.002-0.447,1.002-1.001
								V69.973c0-0.553-0.448-1.002-1.002-1.002h-2.217c-0.134,0-0.243-0.109-0.243-0.243V37.58c0-0.133,0.109-0.243,0.243-0.243
								h2.217c0.554,0,1.002-0.448,1.002-1.001V25.325c0-0.553-0.448-1.003-1.002-1.003H220.43c-0.554,0-1.003,0.451-1.003,1.003
								v11.011C219.427,36.889,219.876,37.337,220.43,37.337z"/>
						</g>
					</g>
					<g>
						<g>
							<path fill="#FFE300" d="M323.351,25.139l-7.592,7.64c-0.516,0.519-0.807,1.219-0.807,1.95v36.914
								c0,0.732,0.294,1.438,0.812,1.957l7.586,7.575c0.521,0.519,1.224,0.81,1.957,0.81h23.113c0.735,0,1.437-0.291,1.956-0.81
								l7.585-7.585c0.521-0.52,0.812-1.223,0.812-1.957V50.937c0-0.553-0.448-1.002-1.002-1.002h-18.21
								c-0.553,0-1.003,0.45-1.003,1.002v9.833c0,0.553,0.45,1,1.003,1h3.118c0.133,0,0.242,0.109,0.242,0.243v3.886
								c0,0.813-0.326,1.595-0.9,2.173c-0.578,0.575-1.357,0.898-2.174,0.898h-5.935c-0.795,0-1.557-0.306-2.128-0.857l-0.033-0.031
								c-0.604-0.58-0.944-1.379-0.944-2.216v-25.39c0-0.815,0.323-1.599,0.901-2.176l0.068-0.066
								c0.577-0.574,1.357-0.897,2.168-0.897h5.875c0.832,0,1.628,0.337,2.205,0.933l0.027,0.029c0.556,0.573,0.869,1.34,0.869,2.14
								v4.964c0,0.553,0.447,1.003,1,1.003h13.85c0.554,0,1.002-0.45,1.002-1.003V34.713c0-0.731-0.291-1.434-0.808-1.953
								l-7.587-7.623c-0.521-0.521-1.225-0.816-1.962-0.816h-23.104C324.577,24.322,323.87,24.616,323.351,25.139z"/>
						</g>
					</g>
					<g>
						<g>
							<path fill="#FFE300" d="M377.197,25.009l-7.848,7.892c-0.435,0.436-0.68,1.025-0.68,1.639v15.072
								c0,0.619,0.247,1.21,0.684,1.646l7.846,7.828c0.437,0.435,1.028,0.68,1.643,0.68h14.688c0.837,0,1.636,0.339,2.215,0.943
								l0.035,0.034c0.551,0.572,0.859,1.336,0.859,2.132v3.024c0,0.815-0.322,1.599-0.9,2.174
								c-0.577,0.575-1.355,0.898-2.172,0.898h-5.899c-0.815,0-1.595-0.324-2.172-0.898l-0.068-0.069
								c-0.577-0.576-0.9-1.359-0.9-2.174v-3.123c0-0.553-0.45-1.003-1.004-1.003h-13.85c-0.552,0-1.003,0.45-1.003,1.003v9.112
								c0,0.614,0.247,1.205,0.684,1.644l7.846,7.845c0.435,0.436,1.028,0.679,1.645,0.679h23.477c0.618,0,1.208-0.243,1.646-0.679
								l7.843-7.845c0.437-0.438,0.682-1.029,0.682-1.644V56.985c0-0.614-0.242-1.201-0.674-1.638l-7.85-7.909
								c-0.436-0.438-1.031-0.686-1.65-0.686h-14.689c-0.791,0-1.551-0.305-2.123-0.852l-0.028-0.029
								c-0.606-0.579-0.949-1.38-0.949-2.221v-3.178c0-0.82,0.326-1.605,0.909-2.183l0.06-0.062c0.577-0.569,1.354-0.89,2.165-0.89
								h5.882c0.828,0,1.623,0.335,2.2,0.931l0.024,0.027c0.561,0.573,0.872,1.342,0.872,2.142v3.444c0,0.553,0.448,1,1.002,1
								h13.849c0.553,0,1.001-0.448,1.001-1v-9.354c0-0.616-0.242-1.205-0.678-1.642l-7.846-7.879
								c-0.438-0.438-1.028-0.685-1.646-0.685h-23.473C378.227,24.322,377.634,24.569,377.197,25.009z"/>
						</g>
					</g>
					<g>
						<g>
							<path fill="#FFE300" d="M422.908,40.729h10.942c0.553,0,1.001-0.449,1.001-1.004V37.58c0-0.133,0.109-0.243,0.242-0.243
								h3.045c0.133,0,0.242,0.109,0.242,0.243v31.148c0,0.134-0.109,0.243-0.242,0.243h-2.285c-0.555,0-1.002,0.45-1.002,1.002
								v11.011c0,0.554,0.447,1.001,1.002,1.001h20.838c0.553,0,1.003-0.447,1.003-1.001V69.973c0-0.553-0.45-1.002-1.003-1.002
								h-2.217c-0.133,0-0.242-0.109-0.242-0.243V37.58c0-0.133,0.109-0.243,0.242-0.243h2.978c0.133,0,0.242,0.109,0.242,0.243
								v2.146c0,0.555,0.449,1.004,1.004,1.004h10.939c0.555,0,1.004-0.449,1.004-1.004v-14.4c0-0.553-0.449-1.003-1.004-1.003
								h-46.729c-0.554,0-1.002,0.451-1.002,1.003v14.4C421.906,40.281,422.354,40.729,422.908,40.729z"/>
						</g>
					</g>
					<g>
						<g>
							<path fill="#FFE300" d="M487.518,25.097l-7.672,7.722c-0.49,0.493-0.764,1.159-0.764,1.854v37.027
								c0,0.699,0.275,1.367,0.767,1.859l7.67,7.658c0.493,0.491,1.162,0.768,1.858,0.768h23.229c0.696,0,1.364-0.276,1.857-0.768
								l7.665-7.658c0.494-0.492,0.771-1.16,0.771-1.859V34.673c0-0.695-0.274-1.361-0.764-1.854l-7.671-7.72
								c-0.492-0.496-1.164-0.777-1.866-0.777h-23.216C488.682,24.322,488.012,24.603,487.518,25.097z M506.148,68.074
								c-0.577,0.575-1.357,0.896-2.168,0.896h-5.939c-0.794,0-1.554-0.306-2.128-0.854l-0.034-0.034
								c-0.604-0.58-0.942-1.379-0.942-2.216v-25.39c0-0.815,0.321-1.599,0.899-2.174l0.071-0.068
								c0.574-0.574,1.354-0.897,2.165-0.897h5.871c0.836,0,1.632,0.339,2.209,0.937l0.034,0.036
								c0.552,0.571,0.862,1.337,0.862,2.132v25.459C507.049,66.717,506.724,67.498,506.148,68.074z"/>
						</g>
					</g>
					<g>
						<g>
							<path fill="#FFE300" d="M586.586,36.336V25.325c0-0.553-0.45-1.003-1.002-1.003h-20.771c-0.553,0-1.001,0.451-1.001,1.003
								v11.011c0,0.554,0.448,1.001,1.001,1.001h2.22c0.133,0,0.242,0.109,0.242,0.243v12.944c0,0.133-0.056,0.149-0.125,0.035
								L551.86,25.057c-0.271-0.454-0.766-0.735-1.298-0.735h-16.901c-0.554,0-1.002,0.451-1.002,1.003v11.011
								c0,0.554,0.448,1.001,1.002,1.001h2.218c0.133,0,0.242,0.109,0.242,0.243v31.148c0,0.134-0.109,0.243-0.242,0.243h-2.218
								c-0.554,0-1.002,0.45-1.002,1.002v11.011c0,0.554,0.448,1.001,1.002,1.001h20.773c0.554,0,1.001-0.447,1.001-1.001V69.973
								c0-0.553-0.447-1.002-1.001-1.002h-2.217c-0.133,0-0.242-0.109-0.242-0.243V56.409c0-0.134,0.056-0.149,0.125-0.035
								l14.939,24.877c0.272,0.455,0.765,0.732,1.296,0.732h17.248c0.552,0,1.002-0.447,1.002-1.001V69.973
								c0-0.553-0.45-1.002-1.002-1.002h-2.218c-0.133,0-0.242-0.109-0.242-0.243V37.58c0-0.133,0.109-0.243,0.242-0.243h2.218
								C586.135,37.337,586.586,36.889,586.586,36.336z"/>
						</g>
					</g>
					<g>
						<g>
							<path fill="#FFE300" d="M305.542,36.336V25.325c0-0.553-0.448-1.003-1.002-1.003h-20.771c-0.553,0-1.002,0.451-1.002,1.003
								v11.011c0,0.554,0.449,1.001,1.002,1.001h2.216c0.133,0,0.243,0.109,0.243,0.243v12.944c0,0.133-0.056,0.149-0.125,0.035
								l-15.289-25.502c-0.273-0.454-0.766-0.735-1.297-0.735h-16.9c-0.554,0-1.003,0.451-1.003,1.003v11.011
								c0,0.554,0.449,1.001,1.003,1.001h2.216c0.133,0,0.243,0.109,0.243,0.243v31.148c0,0.134-0.109,0.243-0.243,0.243h-2.216
								c-0.554,0-1.003,0.45-1.003,1.002v11.011c0,0.554,0.449,1.001,1.003,1.001h20.77c0.554,0,1.003-0.447,1.003-1.001V69.973
								c0-0.553-0.449-1.002-1.003-1.002h-2.216c-0.133,0-0.243-0.109-0.243-0.243V56.409c0-0.134,0.056-0.149,0.125-0.035
								l14.94,24.877c0.274,0.455,0.767,0.732,1.298,0.732h17.248c0.554,0,1.002-0.447,1.002-1.001V69.973
								c0-0.553-0.448-1.002-1.002-1.002h-2.219c-0.133,0-0.242-0.109-0.242-0.243V37.58c0-0.133,0.109-0.243,0.242-0.243h2.219
								C305.094,37.337,305.542,36.889,305.542,36.336z"/>
						</g>
					</g>
				</g>
			</g>
		</g>
		<g>
			<g>
				<g>
					<g>
						<g>
							<path fill="#FFE300" d="M234.667,113.734c0-0.144-0.118-0.26-0.261-0.26h-3.825c-0.143,0-0.26,0.116-0.26,0.26v9.582
								c0,0.143,0.088,0.26,0.196,0.26c0.108,0,0.196,0.003,0.198,0.004c0,0,0.118,0.004,0.262,0.004h12.266
								c0.144,0,0.302-0.108,0.353-0.241l0.441-1.161c0.051-0.135-0.024-0.242-0.167-0.242h-8.942c-0.143,0-0.26-0.118-0.26-0.262
								V113.734z"/>
						</g>
					</g>
					<g>
						<g>
							<path fill="#FFE300" d="M246.929,113.736c-0.022-0.141-0.157-0.257-0.3-0.257l-3.451-0.005c-0.143,0-0.243,0.116-0.219,0.258
								l1.314,8.271c0.022,0.143,0.159,0.258,0.301,0.258l3.452,0.005c0.143,0,0.242-0.115,0.219-0.256L246.929,113.736z"/>
						</g>
					</g>
					<g>
						<g>
							<path fill="#FFE300" d="M224.678,121.983c-0.019,0.144,0.083,0.259,0.226,0.259l3.451-0.007c0.144,0,0.276-0.115,0.295-0.259
								l1.119-8.244c0.019-0.142-0.082-0.258-0.225-0.258l-3.451,0.004c-0.144,0-0.276,0.117-0.295,0.258L224.678,121.983z"/>
						</g>
					</g>
					<g>
						<g>
							<path fill="#FFE300" d="M245.753,111.47c0.144,0,0.377,0,0.521,0h0.389c0.142,0,0.26-0.116,0.26-0.26V99.146
								c0-0.144-0.118-0.261-0.26-0.261h-0.96c-0.144,0-0.378,0-0.522,0h-2.343c-0.144,0-0.378,0-0.521,0H230.44
								c-0.143,0-0.377,0-0.521,0h-3.628c-0.144,0-0.305,0-0.358,0c-0.055,0-0.098,0.117-0.098,0.261v12.064
								c0,0.144,0.043,0.26,0.098,0.26c0.053,0,0.215,0,0.358,0h3.628c0.144,0,0.378,0,0.521,0h11.876c0.143,0,0.377,0,0.521,0
								H245.753z M242.576,104.093c0,0.144-0.117,0.264-0.26,0.264h-3.505c-0.144,0-0.261-0.12-0.261-0.264v-3.301
								c0-0.144,0.117-0.259,0.261-0.259h3.505c0.143,0,0.26,0.115,0.26,0.259V104.093z M233.946,100.533
								c0.143,0,0.261,0.115,0.261,0.259v3.301c0,0.144-0.118,0.264-0.261,0.264h-3.505c-0.143,0-0.261-0.12-0.261-0.264v-3.301
								c0-0.144,0.118-0.259,0.261-0.259H233.946z M230.179,106.262c0-0.144,0.118-0.261,0.261-0.261h3.505
								c0.143,0,0.261,0.117,0.261,0.261v3.304c0,0.143-0.118,0.259-0.261,0.259h-3.505c-0.143,0-0.261-0.116-0.261-0.259V106.262z
								 M238.811,109.824c-0.144,0-0.261-0.116-0.261-0.259v-3.304c0-0.144,0.117-0.261,0.261-0.261h3.505
								c0.143,0,0.26,0.117,0.26,0.261v3.304c0,0.143-0.117,0.259-0.26,0.259H238.811z"/>
						</g>
					</g>
					<g>
						<g>
							<path fill="#FFE300" d="M237.56,120.065c0.024,0.142,0.159,0.257,0.303,0.257h3.449c0.144,0,0.243-0.115,0.219-0.257
								l-1.141-7.084c-0.022-0.141-0.158-0.259-0.302-0.259l-3.451-0.004c-0.142,0-0.241,0.115-0.218,0.256L237.56,120.065z"/>
						</g>
					</g>
				</g>
				<g>
					<g>
						<g>
							<path fill="#FFE300" d="M192.851,122.031c-0.004,0.144,0.108,0.26,0.251,0.26h1.126c0.143,0,0.265-0.116,0.271-0.26
								l0.574-15.298c0.006-0.144-0.107-0.259-0.25-0.259h-1.125c-0.143,0-0.265,0.115-0.271,0.259L192.851,122.031z"/>
						</g>
					</g>
					<g>
						<g>
							<path fill="#FFE300" d="M201.507,106.475c-0.144,0-0.256,0.115-0.251,0.259l0.575,15.298c0.005,0.144,0.127,0.26,0.271,0.26
								h1.125c0.143,0,0.256-0.116,0.251-0.26l-0.575-15.298c-0.005-0.144-0.127-0.259-0.27-0.259H201.507z"/>
						</g>
					</g>
					<g>
						<g>
							<path fill="#FFE300" d="M200.391,99.146c0-0.144-0.117-0.261-0.26-0.261h-3.823c-0.144,0-0.261,0.117-0.261,0.261v3.333
								c0,0.144-0.117,0.261-0.26,0.261h-2.83c-0.143,0-0.26,0.116-0.26,0.26v1.126c0,0.144,0.118,0.262,0.26,0.262h2.83
								c0.144,0,0.26,0.117,0.26,0.259v18.678c0,0.144,0.117,0.26,0.261,0.26h3.823c0.143,0,0.26-0.116,0.26-0.26v-18.678
								c0-0.142,0.117-0.259,0.26-0.259h2.83c0.142,0,0.26-0.118,0.26-0.262v-1.126c0-0.144-0.118-0.26-0.26-0.26h-2.83
								c-0.143,0-0.26-0.117-0.26-0.261V99.146z"/>
						</g>
					</g>
					<g>
						<g>
							<path fill="#FFE300" d="M204.905,122.031c-0.004,0.144,0.109,0.26,0.252,0.26h1.124c0.144,0,0.266-0.116,0.271-0.26
								l0.575-15.298c0.005-0.144-0.107-0.259-0.251-0.259h-1.125c-0.144,0-0.265,0.115-0.271,0.259L204.905,122.031z"/>
						</g>
					</g>
					<g>
						<g>
							<path fill="#FFE300" d="M213.56,106.475c-0.144,0-0.255,0.115-0.251,0.259l0.575,15.298c0.007,0.144,0.127,0.26,0.271,0.26
								h1.125c0.144,0,0.256-0.116,0.25-0.26l-0.574-15.298c-0.005-0.144-0.127-0.259-0.271-0.259H213.56z"/>
						</g>
					</g>
					<g>
						<g>
							<path fill="#FFE300" d="M212.703,102.74c-0.143,0-0.26-0.117-0.26-0.261v-3.333c0-0.144-0.117-0.261-0.26-0.261h-3.823
								c-0.144,0-0.26,0.117-0.26,0.261v3.333c0,0.144-0.117,0.261-0.261,0.261h-2.829c-0.143,0-0.26,0.116-0.26,0.26v1.126
								c0,0.144,0.117,0.262,0.26,0.262h2.829c0.144,0,0.261,0.117,0.261,0.259v18.678c0,0.144,0.117,0.26,0.26,0.26h3.823
								c0.143,0,0.26-0.116,0.26-0.26v-18.678c0-0.142,0.118-0.259,0.26-0.259h2.83c0.144,0,0.26-0.118,0.26-0.262v-1.126
								c0-0.144-0.117-0.26-0.26-0.26H212.703z"/>
						</g>
					</g>
				</g>
				<g>
					<g>
						<g>
							<path fill="#FFE300" d="M264.133,99.135c0-0.143-0.117-0.261-0.261-0.261h-3.826c-0.143,0-0.26,0.118-0.26,0.261v2.512
								c0,0.144-0.117,0.261-0.261,0.261h-2.613c-0.143,0-0.26,0.118-0.26,0.26v1.127c0,0.143,0.117,0.258,0.26,0.258h2.613
								c0.144,0,0.261,0.12,0.261,0.264v13.089c0,0.146-0.117,0.264-0.261,0.264h-0.523c-0.143,0-0.261-0.117-0.261-0.264v-10.94
								c0-0.143-0.116-0.262-0.26-0.262h-1.125c-0.143,0-0.261,0.119-0.261,0.262v12.589c0,0.144,0.118,0.26,0.261,0.26h0.303
								c0.144,0,0.377,0,0.521,0h0.302c0.144,0,0.378,0,0.521,0h0.523c0.144,0,0.261,0.116,0.261,0.261v4.239
								c0,0.144,0.094,0.261,0.208,0.261s0.325,0,0.469,0h3.409c0.144,0,0.378,0,0.521,0h2.261c0.143,0,0.284-0.113,0.315-0.254
								l0.244-1.137c0.03-0.142-0.062-0.255-0.206-0.255h-2.614c-0.143,0-0.26-0.117-0.26-0.261v-2.594
								c0-0.145,0.117-0.261,0.26-0.261h0.524c0.143,0,0.377,0,0.521,0h0.893c0.144,0,0.313,0,0.376,0
								c0.064,0,0.117-0.116,0.117-0.26v-12.589c0-0.143-0.117-0.262-0.261-0.262h-1.125c-0.144,0-0.26,0.119-0.26,0.262v10.94
								c0,0.146-0.117,0.264-0.26,0.264h-0.524c-0.143,0-0.26-0.117-0.26-0.264v-13.089c0-0.144,0.117-0.264,0.26-0.264h2.614
								c0.144,0,0.261-0.115,0.261-0.258v-1.127c0-0.142-0.118-0.26-0.261-0.26h-2.614c-0.143,0-0.26-0.117-0.26-0.261V99.135z"/>
						</g>
					</g>
					<g>
						<g>
							<path fill="#FFE300" d="M280.447,100.523c0.143,0,0.262-0.117,0.262-0.261v-1.127c0-0.143-0.119-0.261-0.262-0.261h-12.919
								c-0.143,0-0.26,0.118-0.26,0.261v1.127c0,0.144,0.117,0.261,0.26,0.261h5.048c0.142,0,0.237,0.115,0.21,0.256l-0.373,1.918
								c-0.027,0.142-0.11,0.257-0.184,0.257c-0.075,0-0.251,0-0.395,0h-3.059c-0.144,0-0.338,0-0.433,0
								c-0.095,0-0.173,0.116-0.173,0.26v16.397c0,0.144,0.078,0.261,0.173,0.261c0.094,0,0.175,0,0.179,0
								c0.003,0-0.015,0.114-0.043,0.256l-0.624,3.211c-0.027,0.141,0.068,0.255,0.211,0.255h3.45c0.143,0,0.283-0.114,0.31-0.255
								l0.624-3.211c0.027-0.142,0.166-0.256,0.31-0.256h2.994c0.143,0,0.282,0.114,0.31,0.256l0.624,3.211
								c0.027,0.141,0.166,0.255,0.31,0.255h3.449c0.143,0,0.238-0.114,0.212-0.255l-0.626-3.22
								c-0.027-0.141,0.009-0.256,0.081-0.256s0.129-0.117,0.129-0.26v-16.39c0-0.144-0.118-0.26-0.26-0.26h-1.441
								c-0.144,0-0.378,0-0.521,0h-1.427c-0.144,0-0.238-0.115-0.21-0.257l0.372-1.918c0.027-0.141,0.167-0.256,0.31-0.256H280.447z
								 M276.319,112.448c0,0.144-0.117,0.261-0.26,0.261h-3.704c-0.144,0-0.26-0.117-0.26-0.261v-2.444
								c0-0.144,0.116-0.26,0.26-0.26h3.704c0.143,0,0.26,0.116,0.26,0.26V112.448z M272.095,114.614c0-0.144,0.116-0.26,0.26-0.26
								h3.704c0.143,0,0.26,0.116,0.26,0.26v3.351c0,0.145-0.117,0.262-0.26,0.262h-3.704c-0.144,0-0.26-0.117-0.26-0.262V114.614z
								 M272.355,108.096c-0.144,0-0.26-0.118-0.26-0.262v-2.976c0-0.144,0.116-0.261,0.26-0.261h3.704
								c0.143,0,0.26,0.117,0.26,0.261v2.976c0,0.144-0.117,0.262-0.26,0.262H272.355z"/>
						</g>
					</g>
				</g>
				<g>
					<g>
						<g>
							<path fill="#FFE300" d="M428.862,104.084c0.142,0.001,0.343-0.081,0.445-0.185l0.272-0.272c0.101-0.101,0.27-0.101,0.369,0
								l0.274,0.272c0.102,0.104,0.302,0.186,0.445,0.185l3.396-0.003c0.144,0,0.177-0.082,0.077-0.184l-2.233-2.225
								c-0.102-0.101-0.102-0.267,0-0.368l2.233-2.224c0.1-0.103,0.066-0.187-0.077-0.187h-3.399c-0.142,0-0.344,0.084-0.445,0.187
								l-0.271,0.271c-0.1,0.101-0.266,0.101-0.369,0l-0.272-0.271c-0.102-0.103-0.298-0.187-0.444-0.187h-3.399
								c-0.141,0-0.177,0.084-0.074,0.187l2.231,2.224c0.101,0.102,0.101,0.268,0,0.368l-2.231,2.225
								c-0.103,0.102-0.066,0.184,0.074,0.184L428.862,104.084z"/>
						</g>
					</g>
					<g>
						<g>
							<path fill="#FFE300" d="M428.862,109.803c0.142,0,0.343-0.082,0.445-0.186l0.272-0.272c0.101-0.103,0.27-0.103,0.369,0
								l0.274,0.272c0.102,0.104,0.302,0.186,0.445,0.186l3.396-0.004c0.144,0,0.177-0.082,0.077-0.185l-2.233-2.225
								c-0.102-0.1-0.102-0.266,0-0.366l2.233-2.228c0.1-0.1,0.066-0.184-0.077-0.184h-3.399c-0.142,0-0.344,0.084-0.445,0.184
								l-0.271,0.271c-0.1,0.101-0.266,0.101-0.369,0l-0.272-0.271c-0.102-0.1-0.298-0.184-0.444-0.184h-3.399
								c-0.141,0-0.177,0.084-0.074,0.184l2.231,2.228c0.101,0.101,0.101,0.267,0,0.366l-2.231,2.225
								c-0.103,0.103-0.066,0.185,0.074,0.185L428.862,109.803z"/>
						</g>
					</g>
					<g>
						<g>
							<path fill="#FFE300" d="M440.617,110.44c-0.146,0-0.262-0.115-0.262-0.259v-1.559c0-0.143,0-0.378,0-0.521v-1.127
								c0-0.142,0-0.377,0-0.521v-1.513c0-0.143,0-0.377,0-0.521v-1.126c0-0.144,0-0.377,0-0.521v-1.524c0-0.144,0-0.377,0-0.521
								v-0.305c0-0.142,0-0.377,0-0.52v-0.302c0-0.142-0.118-0.259-0.259-0.259h-4.884c-0.144,0-0.261,0.117-0.261,0.259v1.126
								c0,0.144,0.117,0.26,0.261,0.26h0.958c0.143,0,0.259,0.117,0.259,0.261v1.524c0,0.144-0.116,0.261-0.259,0.261h-0.958
								c-0.144,0-0.261,0.116-0.261,0.26v1.126c0,0.144,0.117,0.259,0.261,0.259h0.958c0.143,0,0.259,0.119,0.259,0.262v1.513
								c0,0.144-0.116,0.261-0.259,0.261h-0.958c-0.144,0-0.261,0.118-0.261,0.26v1.127c0,0.144,0.117,0.261,0.261,0.261h0.958
								c0.143,0,0.259,0.118,0.259,0.261v1.559c0,0.144-0.116,0.259-0.259,0.259h-12.812c-0.144,0-0.261-0.115-0.261-0.259v-1.559
								c0-0.143,0.117-0.261,0.261-0.261h0.96c0.143,0,0.259-0.117,0.259-0.261v-1.127c0-0.142-0.116-0.26-0.259-0.26h-0.96
								c-0.144,0-0.261-0.117-0.261-0.261v-1.513c0-0.143,0.117-0.262,0.261-0.262h0.96c0.143,0,0.259-0.115,0.259-0.259v-1.126
								c0-0.144-0.116-0.26-0.259-0.26h-0.96c-0.144,0-0.261-0.117-0.261-0.261v-1.524c0-0.144,0.117-0.261,0.261-0.261h0.96
								c0.143,0,0.259-0.116,0.259-0.26v-1.126c0-0.142-0.116-0.259-0.259-0.259h-4.883c-0.146,0-0.263,0.117-0.263,0.259v0.302
								c0,0.143,0,0.378,0,0.52v0.305c0,0.144,0,0.377,0,0.521v1.524c0,0.144,0,0.377,0,0.521v1.126c0,0.144,0,0.378,0,0.521v1.513
								c0,0.144,0,0.379,0,0.521v1.127c0,0.144,0,0.379,0,0.521v1.559c0,0.144-0.115,0.259-0.259,0.259h-0.198
								c-0.145,0-0.358,0-0.475,0c-0.122,0-0.218,0.12-0.218,0.265v3.217c0,0.143,0.116,0.261,0.26,0.261h3.188
								c0.141-0.003,0.258,0.114,0.258,0.261v0.462c0,0.144,0.118,0.26,0.263,0.26h10.829c0.143,0,0.156,0.054,0.028,0.119
								l-3.276,1.71c-0.127,0.068-0.349,0.121-0.491,0.121h-1.017c-0.146,0-0.38,0-0.521,0h-8.648c-0.146,0-0.265,0.117-0.265,0.261
								v1.124c0,0.144,0.118,0.262,0.265,0.262h8.648c0.141,0,0.258,0.116,0.258,0.26v2.645c0,0.145-0.117,0.26-0.258,0.26h-2.852
								c-0.144,0-0.235,0.116-0.206,0.256l0.244,1.139c0.031,0.139,0.173,0.254,0.316,0.254h5.32c0.144,0,0.261,0,0.261,0
								s0.117-0.002,0.261-0.002l0.579-0.002c0.141,0,0.258-0.117,0.258-0.261v-4.288c0-0.144,0.118-0.26,0.264-0.26h8.646
								c0.143,0,0.261-0.118,0.261-0.262v-1.124c0-0.144-0.118-0.261-0.261-0.261h-6.328c-0.146,0-0.158-0.053-0.031-0.121
								l3.273-1.71c0.128-0.065,0.238-0.119,0.242-0.119c0.003,0,0.007-0.116,0.007-0.26v-0.462c0-0.144,0.118-0.261,0.261-0.261
								l3.188-0.003c0.141,0,0.258-0.116,0.258-0.26v-1.571c0-0.144,0-0.377,0-0.521v-1.123c0-0.145-0.117-0.265-0.258-0.265
								H440.617z M437.582,113.257c0,0.144-0.118,0.262-0.259,0.262h-15.116c-0.143,0-0.26-0.118-0.26-0.262v-0.909
								c0-0.144,0.117-0.259,0.26-0.259h15.116c0.141,0,0.259,0.115,0.259,0.259V113.257z"/>
						</g>
					</g>
				</g>
				<g>
					<g>
						<g>
							<path fill="#FFE300" d="M539.769,104.084c0.142,0.001,0.345-0.081,0.444-0.185l0.274-0.272c0.101-0.101,0.267-0.101,0.368,0
								l0.274,0.272c0.1,0.104,0.303,0.186,0.443,0.185l3.398-0.003c0.144,0,0.178-0.082,0.074-0.184l-2.229-2.225
								c-0.104-0.101-0.104-0.267,0-0.368l2.229-2.224c0.104-0.103,0.069-0.187-0.074-0.187h-3.399
								c-0.144,0-0.343,0.084-0.445,0.187l-0.271,0.271c-0.102,0.101-0.268,0.101-0.368,0l-0.271-0.271
								c-0.103-0.103-0.303-0.187-0.446-0.187h-3.398c-0.145,0-0.178,0.084-0.075,0.187l2.229,2.224
								c0.103,0.102,0.103,0.268,0,0.368l-2.229,2.225c-0.103,0.102-0.069,0.184,0.075,0.184L539.769,104.084z"/>
						</g>
					</g>
					<g>
						<g>
							<path fill="#FFE300" d="M539.769,109.803c0.142,0,0.345-0.082,0.444-0.186l0.274-0.272c0.101-0.103,0.267-0.103,0.368,0
								l0.274,0.272c0.1,0.104,0.303,0.186,0.443,0.186l3.398-0.004c0.144,0,0.178-0.082,0.074-0.185l-2.229-2.225
								c-0.104-0.1-0.104-0.266,0-0.366l2.229-2.228c0.104-0.1,0.069-0.184-0.074-0.184h-3.399c-0.144,0-0.343,0.084-0.445,0.184
								l-0.271,0.271c-0.102,0.101-0.268,0.101-0.368,0l-0.271-0.271c-0.103-0.1-0.303-0.184-0.446-0.184h-3.398
								c-0.145,0-0.178,0.084-0.075,0.184l2.229,2.228c0.103,0.101,0.103,0.267,0,0.366l-2.229,2.225
								c-0.103,0.103-0.069,0.185,0.075,0.185L539.769,109.803z"/>
						</g>
					</g>
					<g>
						<g>
							<path fill="#FFE300" d="M551.523,110.44c-0.141,0-0.26-0.115-0.26-0.259v-1.559c0-0.143,0-0.378,0-0.521v-1.127
								c0-0.142,0-0.377,0-0.521v-1.513c0-0.143,0-0.377,0-0.521v-1.126c0-0.144,0-0.377,0-0.521v-1.524c0-0.144,0-0.377,0-0.521
								v-0.305c0-0.142,0-0.377,0-0.52v-0.302c0-0.142-0.117-0.259-0.261-0.259h-4.882c-0.146,0-0.263,0.117-0.263,0.259v1.126
								c0,0.144,0.116,0.26,0.263,0.26h0.957c0.146,0,0.263,0.117,0.263,0.261v1.524c0,0.144-0.117,0.261-0.263,0.261h-0.957
								c-0.146,0-0.263,0.116-0.263,0.26v1.126c0,0.144,0.116,0.259,0.263,0.259h0.957c0.146,0,0.263,0.119,0.263,0.262v1.513
								c0,0.144-0.117,0.261-0.263,0.261h-0.957c-0.146,0-0.263,0.118-0.263,0.26v1.127c0,0.144,0.116,0.261,0.263,0.261h0.957
								c0.146,0,0.263,0.118,0.263,0.261v1.559c0,0.144-0.117,0.259-0.263,0.259h-12.812c-0.144,0-0.26-0.115-0.26-0.259v-1.559
								c0-0.143,0.116-0.261,0.26-0.261h0.957c0.146,0,0.262-0.117,0.262-0.261v-1.127c0-0.142-0.116-0.26-0.262-0.26h-0.957
								c-0.144,0-0.26-0.117-0.26-0.261v-1.513c0-0.143,0.116-0.262,0.26-0.262h0.957c0.146,0,0.262-0.115,0.262-0.259v-1.126
								c0-0.144-0.116-0.26-0.262-0.26h-0.957c-0.144,0-0.26-0.117-0.26-0.261v-1.524c0-0.144,0.116-0.261,0.26-0.261h0.957
								c0.146,0,0.262-0.116,0.262-0.26v-1.126c0-0.142-0.116-0.259-0.262-0.259h-4.881c-0.144,0-0.262,0.117-0.262,0.259v0.302
								c0,0.143,0,0.378,0,0.52v0.305c0,0.144,0,0.377,0,0.521v1.524c0,0.144,0,0.377,0,0.521v1.126c0,0.144,0,0.378,0,0.521v1.513
								c0,0.144,0,0.379,0,0.521v1.127c0,0.144,0,0.379,0,0.521v1.559c0,0.144-0.117,0.259-0.26,0.259h-0.198
								c-0.142,0-0.357,0-0.477,0s-0.218,0.12-0.218,0.265v3.217c0,0.143,0.117,0.261,0.262,0.261h3.186
								c0.144-0.003,0.263,0.114,0.263,0.261v0.462c0,0.144,0.117,0.26,0.26,0.26h10.829c0.145,0,0.156,0.054,0.029,0.119
								l-3.276,1.71c-0.13,0.068-0.351,0.121-0.492,0.121h-1.019c-0.141,0-0.377,0-0.521,0h-8.648c-0.141,0-0.259,0.117-0.259,0.261
								v1.124c0,0.144,0.118,0.262,0.259,0.262h8.648c0.144,0,0.262,0.116,0.262,0.26v2.645c0,0.145-0.118,0.26-0.262,0.26h-2.85
								c-0.143,0-0.235,0.116-0.207,0.256l0.247,1.139c0.028,0.139,0.172,0.254,0.314,0.254h5.321c0.143,0,0.258,0,0.258,0
								s0.118-0.002,0.264-0.002l0.576-0.002c0.144,0,0.262-0.117,0.262-0.261v-4.288c0-0.144,0.117-0.26,0.261-0.26h8.648
								c0.143,0,0.26-0.118,0.26-0.262v-1.124c0-0.144-0.117-0.261-0.26-0.261h-6.331c-0.141,0-0.158-0.053-0.029-0.121l3.274-1.71
								c0.125-0.065,0.235-0.119,0.239-0.119c0.007,0,0.01-0.116,0.01-0.26v-0.462c0-0.144,0.118-0.261,0.26-0.261l3.187-0.003
								c0.146,0,0.263-0.116,0.263-0.26v-1.571c0-0.144,0-0.377,0-0.521v-1.123c0-0.145-0.117-0.265-0.263-0.265H551.523z
								 M548.49,113.257c0,0.144-0.116,0.262-0.262,0.262h-15.113c-0.146,0-0.261-0.118-0.261-0.262v-0.909
								c0-0.144,0.115-0.259,0.261-0.259h15.113c0.146,0,0.262,0.115,0.262,0.259V113.257z"/>
						</g>
					</g>
				</g>
				<g>
					<g>
						<path fill="#FFE300" d="M450.121,121.924c-0.004,0.144,0.11,0.261,0.251,0.261h1.126c0.144,0,0.266-0.117,0.271-0.261
							l0.572-15.297c0.007-0.144-0.104-0.261-0.25-0.261h-1.124c-0.144,0-0.265,0.117-0.271,0.261L450.121,121.924z"/>
					</g>
					<g>
						<path fill="#FFE300" d="M469.216,110.873c-0.144,0-0.327,0.097-0.408,0.214l-2.153,3.102c-0.083,0.118-0.216,0.118-0.297,0
							l-2.151-3.102c-0.084-0.117-0.269-0.214-0.41-0.214h-3.405c-0.142,0-0.191,0.097-0.11,0.214l4.114,5.927
							c0.081,0.119,0.081,0.311,0,0.429l-4.114,5.926c-0.081,0.121-0.031,0.215,0.11,0.215l3.41-0.005
							c0.141,0,0.328-0.099,0.409-0.214l2.147-3.096c0.081-0.117,0.214-0.117,0.297,0l2.148,3.096
							c0.082,0.115,0.265,0.214,0.409,0.214l3.407,0.005c0.144,0,0.195-0.094,0.114-0.215l-4.118-5.926
							c-0.082-0.118-0.082-0.31,0-0.429l4.118-5.927c0.081-0.117,0.029-0.214-0.114-0.214H469.216z"/>
					</g>
					<g>
						<path fill="#FFE300" d="M462.74,109.828c0.144,0,0.313-0.103,0.383-0.229l2.52-4.743c0.066-0.129,0.004-0.231-0.14-0.231
							l-3.401-0.012c-0.146,0-0.316,0.103-0.385,0.229l-2.349,4.427c-0.068,0.128-0.129,0.113-0.134-0.03l-0.097-2.61
							c-0.008-0.144-0.129-0.261-0.27-0.261h-1.127c-0.144,0-0.257,0.117-0.251,0.261l0.573,15.297
							c0.007,0.144,0.13,0.261,0.271,0.261h1.127c0.142,0,0.254-0.117,0.25-0.261l-0.443-11.847
							c-0.007-0.142,0.104-0.258,0.25-0.258L462.74,109.828z"/>
					</g>
					<g>
						<path fill="#FFE300" d="M467.507,104.624c-0.144,0-0.205,0.103-0.137,0.231l2.519,4.743c0.066,0.127,0.24,0.229,0.381,0.229
							l3.407-0.009c0.143,0,0.205-0.105,0.139-0.23l-2.52-4.748c-0.069-0.126-0.243-0.229-0.385-0.229L467.507,104.624z"/>
					</g>
					<g>
						<path fill="#FFE300" d="M459.219,104.28c0.141,0,0.259-0.117,0.259-0.261v-1.124c0-0.144-0.118-0.261-0.259-0.261h-2.079
							c-0.144,0-0.261-0.119-0.261-0.261v-3.228c0-0.144-0.117-0.261-0.261-0.261h-3.403c-0.144,0-0.261,0.117-0.261,0.261v3.228
							c0,0.142-0.116,0.261-0.26,0.261h-2.08c-0.141,0-0.258,0.117-0.258,0.261v1.124c0,0.144,0.117,0.261,0.258,0.261h2.08
							c0.144,0,0.26,0.116,0.26,0.26v18.784c0,0.144,0.117,0.26,0.261,0.26l3.403-0.012c0.144-0.002,0.261-0.119,0.261-0.263v-18.77
							c0-0.144,0.117-0.26,0.261-0.26H459.219z"/>
					</g>
					<g>
						<path fill="#FFE300" d="M472.978,102.071c0-0.144-0.116-0.261-0.257-0.261h-3.995c-0.141,0-0.259-0.116-0.259-0.26v-2.404
							c0-0.144-0.115-0.261-0.261-0.261h-3.404c-0.141,0-0.259,0.117-0.259,0.261v2.404c0,0.144-0.116,0.26-0.262,0.26h-3.988
							c-0.146,0-0.265,0.117-0.265,0.261v1.124c0,0.144,0.118,0.261,0.265,0.261h12.428c0.141,0,0.257-0.117,0.257-0.261V102.071z"
							/>
					</g>
				</g>
				<g>
					<g>
						<g>
							<path fill="#FFE300" d="M179.094,112.892c-0.144,0-0.378,0-0.521,0h-12.917c-0.144,0-0.377,0-0.521,0h-3.825
								c-0.143,0-0.26,0.117-0.26,0.261v1.125c0,0.144,0,0.379,0,0.522v6.877c0,0.141,0,0.379,0,0.521v1.125
								c0,0.144,0.117,0.26,0.26,0.26h3.825c0.144,0,0.377,0,0.521,0h12.917c0.143,0,0.377,0,0.521,0h1.677c0.144,0,0.378,0,0.521,0
								h1.627c0.144,0,0.259-0.116,0.259-0.26v-10.171c0-0.144-0.116-0.261-0.259-0.261h-2.198c-0.144,0-0.377,0-0.521,0H179.094z
								 M178.573,114.539c0.143,0,0.261,0.117,0.261,0.261v2.354c0,0.144-0.118,0.262-0.261,0.262h-12.917
								c-0.144,0-0.261-0.118-0.261-0.262V114.8c0-0.144,0.117-0.261,0.261-0.261H178.573z M165.656,121.939
								c-0.144,0-0.261-0.121-0.261-0.262v-2.356c0-0.142,0.117-0.259,0.261-0.259h12.917c0.143,0,0.261,0.117,0.261,0.259v2.356
								c0,0.141-0.118,0.262-0.261,0.262H165.656z"/>
						</g>
					</g>
					<g>
						<g>
							<path fill="#FFE300" d="M183.716,103.525c0.144,0,0.26-0.117,0.26-0.261v-1.127c0-0.144-0.117-0.261-0.26-0.261h-4.527
								c-0.143,0-0.241-0.115-0.218-0.256l0.41-2.479c0.023-0.142-0.075-0.257-0.218-0.257h-3.826c-0.144,0-0.278,0.115-0.303,0.257
								l-0.41,2.479c-0.022,0.141-0.159,0.256-0.302,0.256h-4.414c-0.144,0-0.28-0.115-0.303-0.256l-0.41-2.479
								c-0.023-0.142-0.159-0.257-0.303-0.257h-3.826c-0.144,0-0.242,0.115-0.217,0.257l0.41,2.479
								c0.022,0.141-0.074,0.256-0.219,0.256h-4.698c-0.144,0-0.262,0.117-0.262,0.261v1.127c0,0.144,0.118,0.261,0.262,0.261h5.686
								c0.143,0,0.26,0.117,0.26,0.26v5.91c0,0.143-0.117,0.26-0.26,0.26h-0.812c-0.144,0-0.285-0.115-0.315-0.255l-0.981-4.53
								c-0.03-0.139-0.172-0.254-0.315-0.254h-1.932c-0.144,0-0.236,0.115-0.206,0.254l0.981,4.53
								c0.03,0.14-0.062,0.255-0.206,0.255h-1.899c-0.144,0-0.262,0.117-0.262,0.26v1.127c0,0.141,0.118,0.261,0.262,0.261h23.375
								c0.144,0,0.26-0.12,0.26-0.261v-1.127c0-0.143-0.117-0.26-0.26-0.26h-1.709c-0.144,0-0.235-0.115-0.205-0.255l0.98-4.53
								c0.03-0.139-0.062-0.254-0.206-0.254h-1.932c-0.142,0-0.285,0.115-0.315,0.254l-0.98,4.53
								c-0.03,0.14-0.173,0.255-0.316,0.255h-0.729c-0.144,0-0.26-0.117-0.26-0.26v-5.91c0-0.143,0.117-0.26,0.26-0.26H183.716z
								 M173.697,109.695c0,0.143-0.117,0.26-0.261,0.26h-2.542c-0.144,0-0.261-0.117-0.261-0.26v-5.91
								c0-0.143,0.118-0.26,0.261-0.26h2.542c0.144,0,0.261,0.117,0.261,0.26V109.695z"/>
						</g>
					</g>
				</g>
				<g>
					<g>
						<path fill="#FFE300" d="M389.783,118.517c-0.144-0.003-0.202,0.099-0.127,0.224l2.279,3.85
							c0.074,0.122,0.251,0.226,0.395,0.226h3.41c0.145,0,0.202-0.104,0.128-0.226l-2.278-3.838
							c-0.072-0.123-0.25-0.226-0.395-0.226L389.783,118.517z"/>
					</g>
					<g>
						<path fill="#FFE300" d="M409.179,100.626c0-0.146-0.115-0.264-0.26-0.264h-6.132c-0.145,0-0.233-0.115-0.198-0.254
							l0.194-0.761c0.034-0.14-0.055-0.254-0.198-0.254l-3.411,0.011c-0.146,0.003-0.291,0.115-0.328,0.255l-1.416,5.577
							c-0.035,0.141-0.183,0.255-0.325,0.255h-0.862c-0.141,0-0.279-0.116-0.301-0.259l-0.409-2.681
							c-0.023-0.142,0.076-0.26,0.22-0.26h1.657c0.144,0,0.263-0.117,0.263-0.261v-1.105c0-0.146-0.119-0.264-0.263-0.264h-6.133
							c-0.144,0-0.234-0.115-0.199-0.254l0.195-0.761c0.036-0.14-0.054-0.254-0.199-0.254l-3.41,0.011
							c-0.143,0.003-0.292,0.115-0.326,0.255l-1.417,5.577c-0.034,0.141,0.055,0.255,0.197,0.255h3.41
							c0.144,0,0.29-0.114,0.327-0.255l0.684-2.689c0.033-0.14,0.181-0.255,0.325-0.255h0.433c0.145,0,0.279,0.118,0.303,0.26
							l0.412,2.681c0.021,0.143,0.156,0.259,0.299,0.259h2.778c0.143,0,0.263,0.116,0.263,0.263v1.416
							c0,0.144-0.12,0.265-0.263,0.265h-7.522c-0.144,0-0.263,0.116-0.263,0.259v1.108c0,0.144,0.119,0.262,0.263,0.262h7.522
							c0.143,0,0.263,0.118,0.263,0.261v1.904c0,0.145-0.12,0.261-0.263,0.261h-8.414c-0.146,0-0.264,0.117-0.264,0.262v1.106
							c0,0.145,0.118,0.261,0.264,0.261h15.178c0.143,0,0.261,0.118,0.261,0.262v1.905c0,0.144-0.118,0.26-0.261,0.26h-15.178
							c-0.146,0-0.264,0.119-0.264,0.263v1.107c0,0.145,0.118,0.262,0.264,0.262h15.178c0.143,0,0.261,0.116,0.261,0.263v4.342
							c0,0.144-0.118,0.261-0.261,0.261h-4.729c-0.142,0-0.234,0.116-0.206,0.256l0.241,1.119c0.029,0.141,0.172,0.255,0.315,0.255
							h5.262c0.145,0,0.262,0,0.262,0s0.119-0.001,0.263-0.001l2.475-0.003c0.146,0,0.264-0.118,0.264-0.263v-5.966
							c0-0.146,0.118-0.263,0.262-0.263h2.406c0.146,0,0.262-0.117,0.262-0.262v-1.107c0-0.144-0.115-0.263-0.262-0.263h-2.406
							c-0.144,0-0.262-0.116-0.262-0.26v-1.905c0-0.144,0.118-0.262,0.262-0.262h2.406c0.146,0,0.262-0.116,0.262-0.261v-1.106
							c0-0.145-0.115-0.262-0.262-0.262h-9.169c-0.146,0-0.263-0.116-0.263-0.261v-1.904c0-0.143,0.117-0.261,0.263-0.261h7.792
							c0.144,0,0.264-0.118,0.264-0.262v-1.108c0-0.143-0.12-0.259-0.264-0.259h-7.792c-0.146,0-0.263-0.121-0.263-0.265v-1.416
							c0-0.146,0.117-0.263,0.263-0.263h1.54c0.144,0,0.291-0.114,0.325-0.255l0.684-2.689c0.035-0.14,0.182-0.255,0.325-0.255
							h0.435c0.144,0,0.28,0.118,0.301,0.26l0.411,2.681c0.024,0.143,0.157,0.259,0.304,0.259h3.407
							c0.145,0,0.247-0.116,0.222-0.259l-0.411-2.681c-0.021-0.142,0.079-0.26,0.223-0.26h1.657c0.145,0,0.26-0.117,0.26-0.261
							V100.626z"/>
					</g>
				</g>
				<g>
					<g>
						<path fill="#FFE300" d="M303.308,101.296c-0.143,0-0.262-0.117-0.262-0.261v-1.812c0-0.143-0.117-0.26-0.261-0.26h-3.777
							c-0.146,0-0.263,0.117-0.263,0.26v1.812c0,0.144-0.117,0.261-0.263,0.261h-8.67c-0.144,0-0.262,0.118-0.262,0.262v1.106
							c0,0.146,0.118,0.264,0.262,0.264h22.167c0.143,0,0.259-0.118,0.259-0.264v-1.106c0-0.144-0.116-0.262-0.259-0.262H303.308z"
							/>
					</g>
					<g>
						<path fill="#FFE300" d="M308.439,111.47c-0.143,0-0.378,0-0.521,0h-14.042c-0.144,0-0.38,0-0.523,0h-3.096
							c-0.144,0-0.322,0-0.396,0c-0.073,0-0.133,0.118-0.133,0.262v11.512c0,0.144,0.118,0.264,0.261,0.262l3.363-0.007
							c0.144,0,0.261-0.116,0.261-0.26v-9.875c0-0.144,0.118-0.265,0.262-0.265h14.042c0.144,0,0.261,0.121,0.261,0.265v8.25
							c0,0.145-0.117,0.263-0.261,0.263h-2.277c-0.144,0-0.236,0.114-0.208,0.255l0.243,1.119c0.027,0.141,0.17,0.257,0.314,0.257
							h5.262c0.145,0,0.262-0.002,0.264-0.004c0,0,0.119-0.002,0.26-0.002l0.029-0.003c0.145,0,0.262-0.116,0.262-0.26v-11.507
							c0-0.144-0.084-0.262-0.189-0.262c-0.104,0-0.307,0-0.448,0H308.439z"/>
					</g>
					<g>
						<path fill="#FFE300" d="M307.992,110.134c0.146,0,0.263,0,0.263,0c0-0.002,0.117-0.002,0.262-0.002h1.022
							c0.144,0,0.262-0.119,0.262-0.263v-5.117c0-0.144-0.118-0.262-0.262-0.262h-1.022c-0.145,0-0.378,0-0.524,0h-1.816
							c-0.144,0-0.38,0-0.523,0h-13.397c-0.144,0-0.263,0.092-0.263,0.201c0,0.11,0,0.318,0,0.462v0.707c0,0.144,0,0.379,0,0.522
							v1.86c0,0.143,0,0.379,0,0.522v1.106c0,0.145,0.119,0.262,0.263,0.262H307.992z M296.142,108.502
							c-0.146,0-0.263-0.116-0.263-0.259v-1.86c0-0.144,0.117-0.263,0.263-0.263h9.51c0.144,0,0.261,0.119,0.261,0.263v1.86
							c0,0.143-0.117,0.259-0.261,0.259H296.142z"/>
					</g>
					<g>
						<path fill="#FFE300" d="M306.365,121.282c0,0,0.117-0.004,0.263-0.004h0.044c0.142,0,0.261-0.118,0.261-0.264v-6.603
							c0-0.144-0.119-0.264-0.261-0.264h-0.044c-0.146,0-0.38,0-0.525,0h-2.794c-0.145,0-0.379,0-0.524,0h-3.775
							c-0.146,0-0.38,0-0.525,0h-3.161c-0.142,0-0.306,0-0.362,0s-0.101,0.12-0.101,0.264v6.606c0,0.146,0.045,0.264,0.101,0.264
							s0.101,0,0.101,0s0.12,0,0.261,0h10.78C306.248,121.282,306.365,121.282,306.365,121.282z M299.009,119.652
							c-0.146,0-0.263-0.118-0.263-0.262v-3.349c0-0.144,0.117-0.261,0.263-0.261h3.775c0.146,0,0.263,0.117,0.263,0.261v3.349
							c0,0.144-0.117,0.262-0.263,0.262H299.009z"/>
					</g>
				</g>
				<g>
					<g>
						<path fill="#FFE300" d="M321.498,123.222c0,0.144,0.117,0.261,0.262,0.261l1.843-0.004c0.146,0,0.262-0.117,0.262-0.262
							v-7.212c0-0.144-0.116-0.262-0.262-0.262h-1.843c-0.145,0-0.262,0.118-0.262,0.262V123.222z"/>
					</g>
					<g>
						<path fill="#FFE300" d="M344.557,123.483c0.146,0,0.21-0.104,0.149-0.236l-3.283-6.937c-0.06-0.131-0.068-0.346-0.016-0.479
							l2.75-6.84c0.054-0.134,0.099-0.36,0.099-0.504v-1.107c0-0.146-0.119-0.263-0.261-0.263h-2.018
							c-0.143,0-0.23-0.112-0.19-0.252l1.489-5.382c0.036-0.14,0.068-0.37,0.068-0.515v-1.106c0-0.146-0.116-0.263-0.262-0.263
							h-11.18c-0.146,0-0.263,0.117-0.263,0.263v18.131c0,0.145-0.045,0.372-0.102,0.505l-1.449,3.511
							c-0.055,0.133-0.102,0.125-0.102-0.021v-5.982c0-0.144-0.117-0.262-0.26-0.262h-1.843c-0.146,0-0.264,0.118-0.264,0.262v7.217
							c0,0.144,0.118,0.261,0.264,0.261l1.336-0.003c0.144,0,0.26,0,0.26,0c-0.002,0.005,0.116,0.007,0.261,0.007h3.408
							c0.146,0,0.307-0.108,0.361-0.243l1.916-4.7c0.057-0.134,0.102-0.36,0.102-0.505v-5.621c0-0.144,0.048-0.154,0.11-0.024
							l1.626,3.436c0.062,0.133,0.067,0.347,0.015,0.479l-2.781,6.932c-0.055,0.133,0.02,0.243,0.163,0.243h3.41
							c0.141,0,0.302-0.11,0.358-0.243l0.978-2.435c0.054-0.134,0.149-0.137,0.21-0.008l1.155,2.441
							c0.062,0.13,0.23,0.236,0.375,0.237L344.557,123.483z M338.638,110.428c-0.062-0.13-0.229-0.237-0.371-0.237l-2.478-0.01
							c-0.144,0-0.26-0.12-0.26-0.264v-8.424c0-0.146,0.116-0.263,0.26-0.263h3.361c0.146,0,0.23,0.113,0.193,0.253l-1.49,5.382
							c-0.039,0.14-0.07,0.369-0.07,0.515v1.107c0,0.144,0.12,0.26,0.261,0.26h2.01c0.146,0,0.22,0.11,0.166,0.244l-0.94,2.34
							c-0.052,0.133-0.149,0.137-0.21,0.006L338.638,110.428z"/>
					</g>
					<g>
						<path fill="#FFE300" d="M324.559,123.222c0,0.144,0.118,0.261,0.262,0.261l1.846-0.004c0.143,0,0.261-0.117,0.261-0.262
							v-7.212c0-0.144-0.118-0.262-0.261-0.262h-1.846c-0.144,0-0.262,0.118-0.262,0.262V123.222z"/>
					</g>
					<g>
						<path fill="#FFE300" d="M329.989,114.832c0-0.031,0-0.172,0-0.315v-1.001c0-0.145,0-0.38,0-0.524v-1.188
							c0-0.143-0.117-0.26-0.26-0.26h-1.459c-0.146,0-0.264,0.117-0.264,0.26v1.188c0,0.145-0.116,0.262-0.262,0.262h-2.033
							c-0.144,0-0.191-0.096-0.106-0.21l4.234-5.716c0.087-0.116,0.157-0.325,0.157-0.472v-1.106c0-0.146-0.116-0.264-0.262-0.264
							h-4.021c-0.146,0-0.193-0.094-0.106-0.208l4.508-6.084c0.085-0.114,0.035-0.21-0.105-0.21h-3.407
							c-0.146,0-0.335,0.096-0.42,0.21l-4.528,6.084c-0.087,0.114-0.156,0.208-0.156,0.208s0,0.117,0,0.264v1.106
							c0,0.146,0.117,0.262,0.262,0.262h4.043c0.145,0,0.191,0.094,0.104,0.21l-4.255,5.716c-0.085,0.114-0.154,0.328-0.154,0.473
							v1.107c0,0.142,0.117,0.261,0.262,0.261h7.97C329.872,114.884,329.989,114.86,329.989,114.832z"/>
					</g>
				</g>
				<path fill="#FFE300" d="M376.071,103.007h-8.536c-0.144,0-0.262-0.116-0.262-0.26v-3.532c0-0.146-0.118-0.264-0.261-0.264
					h-3.363c-0.144,0-0.261,0.117-0.261,0.264v3.532c0,0.144-0.117,0.26-0.262,0.26h-8.536c-0.189,0-0.343,0.153-0.343,0.342v13.94
					c0,0.187,0.151,0.339,0.339,0.339c1.623,0,8.54,0,8.54,0c0.145,0,0.262,0.118,0.262,0.262v5.367c0,0.144,0.117,0.262,0.261,0.26
					l3.363-0.012c0.143,0,0.261-0.119,0.261-0.263v-5.353c0-0.144,0.118-0.26,0.262-0.262l8.536-0.003
					c0.188,0,0.339-0.153,0.339-0.341v-13.936C376.41,103.16,376.26,103.007,376.071,103.007z M358.398,115.998
					c-0.145,0-0.263-0.115-0.263-0.262v-10.835c0-0.146,0.118-0.264,0.263-0.264h4.729c0.145,0,0.262,0.118,0.262,0.264v10.835
					c0,0.146-0.117,0.262-0.262,0.262H358.398z M367.535,115.998c-0.144,0-0.262-0.115-0.262-0.262v-10.835
					c0-0.146,0.118-0.264,0.262-0.264h4.729c0.144,0,0.263,0.118,0.263,0.264v10.835c0,0.146-0.119,0.262-0.263,0.262H367.535z"/>
				<g>
					<g>
						<path fill="#FFE300" d="M569.914,99.115c0-0.121-0.1-0.223-0.224-0.223h-3.878c-0.123,0-0.223,0.102-0.223,0.223v2.534
							c0,0.122-0.1,0.223-0.225,0.223h-3.613c-0.122,0-0.223,0.102-0.223,0.224v1.193c0,0.122,0.101,0.223,0.223,0.223h12.003
							c0.122,0,0.222-0.101,0.222-0.223v-1.193c0-0.122-0.1-0.224-0.222-0.224h-3.617c-0.121,0-0.224-0.101-0.224-0.223V99.115z"/>
					</g>
					<g>
						<path fill="#FFE300" d="M575.229,99.603c-0.122,0-0.225,0.103-0.225,0.223v23.528c0,0.122,0.103,0.222,0.225,0.222h3.879
							c0.123,0,0.225-0.1,0.225-0.222v-2.811c0-0.123,0.101-0.225,0.224-0.225h4.473c0.126,0,0.229-0.099,0.229-0.224v-10.108
							c0-0.123-0.085-0.28-0.188-0.35l-0.817-0.567c-0.101-0.067-0.101-0.184,0-0.252l0.817-0.565
							c0.103-0.07,0.188-0.229,0.188-0.352v-8.075c0-0.12-0.103-0.223-0.229-0.223H575.229z M579.556,118.68
							c-0.123,0-0.224-0.1-0.224-0.222v-8.472c0-0.123,0.101-0.225,0.224-0.225h0.94c0.122,0,0.223,0.102,0.223,0.225v8.472
							c0,0.122-0.101,0.222-0.223,0.222H579.556z M580.719,107.901c0,0.123-0.101,0.225-0.223,0.225h-0.94
							c-0.123,0-0.224-0.102-0.224-0.225v-6.436c0-0.121,0.101-0.223,0.224-0.223h0.94c0.122,0,0.223,0.102,0.223,0.223V107.901z"/>
					</g>
					<g>
						<path fill="#FFE300" d="M573.412,105.679c0.02-0.124-0.065-0.224-0.191-0.221l-3.508,0.012c-0.121,0-0.238,0.103-0.257,0.222
							l-0.662,4.348c-0.019,0.123-0.136,0.223-0.256,0.223h-1.57c-0.125,0-0.239-0.1-0.259-0.223l-0.663-4.348
							c-0.018-0.119-0.133-0.222-0.255-0.222l-3.51-0.012c-0.123-0.003-0.207,0.097-0.191,0.221l0.667,4.36
							c0.019,0.123-0.069,0.223-0.191,0.223h-0.817c-0.122,0-0.225,0.1-0.225,0.224v1.19c0,0.123,0.103,0.225,0.225,0.225h11.997
							c0.126,0,0.228-0.102,0.228-0.225v-1.19c0-0.124-0.102-0.224-0.228-0.224h-0.807c-0.122,0-0.21-0.1-0.188-0.223
							L573.412,105.679z"/>
					</g>
					<g>
						<path fill="#FFE300" d="M562.193,113.845c-0.124,0-0.225,0.101-0.225,0.224v9.285c0,0.122,0.101,0.222,0.225,0.222h11.116
							c0.126,0,0.228-0.1,0.228-0.222v-9.285c0-0.123-0.102-0.224-0.228-0.224H562.193z M569.628,121.714
							c0,0.122-0.101,0.225-0.224,0.225h-3.306c-0.12,0-0.222-0.103-0.222-0.225v-6.007c0-0.122,0.102-0.222,0.222-0.222h3.306
							c0.123,0,0.224,0.1,0.224,0.222V121.714z"/>
					</g>
				</g>
				<g>
					<g>
						<g>
							<path fill="#FFE300" d="M499.844,103.079c-0.145,0-0.277,0.118-0.299,0.259l-2.869,18.675
								c-0.019,0.141,0.077,0.256,0.222,0.256h3.436c0.143,0,0.275-0.115,0.298-0.256l2.869-18.689
								c0.023-0.138-0.077-0.254-0.219-0.254L499.844,103.079z"/>
						</g>
					</g>
					<g>
						<g>
							<path fill="#FFE300" d="M517.365,103.338c-0.021-0.141-0.155-0.259-0.299-0.259l-3.437-0.01
								c-0.142,0-0.242,0.116-0.221,0.254l2.87,18.689c0.024,0.141,0.157,0.256,0.299,0.256h3.436c0.144,0,0.243-0.115,0.222-0.256
								L517.365,103.338z"/>
						</g>
					</g>
					<g>
						<g>
							<path fill="#FFE300" d="M506.503,121.621c0,0.144-0.118,0.26-0.262,0.26h-2.718c-0.141,0-0.233,0.113-0.203,0.253
								l0.242,1.132c0.03,0.14,0.171,0.254,0.313,0.254h5.298c0.145,0,0.262-0.001,0.262-0.004c0,0,0.116-0.007,0.257-0.007
								l0.457-0.002c0.141,0,0.259-0.117,0.259-0.261V99.208c0-0.144-0.118-0.261-0.259-0.261h-3.388
								c-0.145,0-0.259,0.117-0.259,0.261V121.621z"/>
						</g>
					</g>
				</g>
			</g>
		</g>
	</g>
	<g>
		<g>
			<g>
				<g id="XMLID_15_">
					<path fill="#FFE300" d="M133.849,70.389l-12.261-11.306l7.309-23.39l-23.822-5.34l-3.624-16.213L85.52,19.094L68.933,1.059
						L52.391,19.032L36.535,14.05l-3.67,16.29L8.954,35.694l7.295,23.315L4.002,70.242l12.261,11.322l-7.309,23.388l23.836,5.34
						l3.611,16.214l15.93-4.968l16.602,18.035l16.542-17.974l15.841,4.98l3.67-16.272l23.911-5.355l-7.279-23.314L133.849,70.389z"
						/>
				</g>
			</g>
			<g>
				<path fill="#FFFFFF" d="M69.217,70.065c-0.18,0.082-0.386,0.082-0.568,0l-7.848-3.507L59.07,78.353l9.862,4.552l9.85-4.552
					L77.05,66.559L69.217,70.065z"/>
				<path fill="#FFFFFF" d="M95.835,86.098c0.032-0.139,0.104-0.265,0.208-0.359l16.748-15.416L98.114,56.821l-16.01,7.34
					l2.476,16.872c0.044,0.305-0.118,0.605-0.399,0.734l-12.589,5.795v14.727l19.267,6.015L95.835,86.098z"/>
				<path fill="#FFFFFF" d="M39.722,56.821L25.061,70.323l16.746,15.416c0.103,0.095,0.176,0.221,0.207,0.359l4.979,22.205
					l19.251-6.012V87.562l-12.589-5.795c-0.28-0.129-0.443-0.43-0.397-0.734l2.476-16.872L39.722,56.821z"/>
				<path fill="#FFFFFF" d="M47.026,32.216l-4.457,20.29c8.646,1.726,17.732,5.768,26.357,11.725
					c8.623-5.957,17.709-9.999,26.355-11.725l-4.457-20.29c-2.542,0.372-12.338,2.033-19.796,6.508v15.867
					c0,1.158-0.944,2.103-2.103,2.103c-1.158,0-2.103-0.945-2.103-2.103V38.724C59.364,34.248,49.57,32.587,47.026,32.216z"/>
			</g>
		</g>
	</g>
</g>
</svg>
