<?xml version="1.0" encoding="utf-8"?>
<!-- Generator: Adobe Illustrator 25.1.0, SVG Export Plug-In . SVG Version: 6.00 Build 0)  -->
<svg version="1.1" id="_x30_" xmlns="http://www.w3.org/2000/svg" xmlns:xlink="http://www.w3.org/1999/xlink" x="0px" y="0px"
	 viewBox="0 0 24 20.8" style="enable-background:new 0 0 24 20.8;" xml:space="preserve">
<style type="text/css">
	.st0{fill:#FFFFFF;}
	.st1{fill:#DEE2E6;}
</style>
<g>
	<polygon class="st0" points="1.3,-1.3 22.7,-1.3 12,17.3 	"/>
	<path class="st1" d="M21.4-0.5L12,15.8L2.6-0.5H21.4 M24-2H0l12,20.8L24-2L24-2z"/>
</g>
</svg>
