<svg xmlns="http://www.w3.org/2000/svg" width="63.999" height="70.193" viewBox="0 0 31 34">
  <defs>
    <style>
      .cls-1 {
        fill: #43bdd2;
        fill-rule: evenodd;
      }
    </style>
  </defs>
  <path id="Forma_1" data-name="Forma 1" class="cls-1" d="M1345.19,1875.05a5.74,5.74,0,0,0-4.66,2.44l-9.16-4.83a6.064,6.064,0,0,0,.26-1.66,5.962,5.962,0,0,0-.44-2.24l9.59-5.93a5.719,5.719,0,0,0,4.41,2.12,5.977,5.977,0,1,0-5.82-5.97,6.133,6.133,0,0,0,.41,2.15l-9.62,5.94a5.725,5.725,0,0,0-4.35-2.05,5.977,5.977,0,0,0,0,11.95,5.742,5.742,0,0,0,4.72-2.51l9.13,4.81a6,6,0,0,0-.29,1.75A5.817,5.817,0,1,0,1345.19,1875.05Z" transform="translate(-1320 -1853)"/>
</svg>
